(kicad_pcb (version 20171130) (host pcbnew "(5.1.0)-1")

  (general
    (thickness 1.6)
    (drawings 0)
    (tracks 66)
    (zones 0)
    (modules 14)
    (nets 12)
  )

  (page A4)
  (layers
    (0 F.Cu signal)
    (31 B.Cu signal)
    (32 B.Adhes user hide)
    (33 F.Adhes user hide)
    (34 B.Paste user hide)
    (35 F.Paste user hide)
    (36 B.SilkS user hide)
    (37 F.SilkS user hide)
    (38 B.Mask user hide)
    (39 F.Mask user hide)
    (40 Dwgs.User user hide)
    (41 Cmts.User user hide)
    (42 Eco1.User user hide)
    (43 Eco2.User user hide)
    (44 Edge.Cuts user)
    (45 Margin user)
    (46 B.CrtYd user hide)
    (47 F.CrtYd user)
    (48 B.Fab user hide)
    (49 F.Fab user)
  )

  (setup
    (last_trace_width 0.25)
    (trace_clearance 0.2)
    (zone_clearance 0.508)
    (zone_45_only no)
    (trace_min 0.2)
    (via_size 0.8)
    (via_drill 0.4)
    (via_min_size 0.4)
    (via_min_drill 0.3)
    (uvia_size 0.3)
    (uvia_drill 0.1)
    (uvias_allowed no)
    (uvia_min_size 0.2)
    (uvia_min_drill 0.1)
    (edge_width 0.05)
    (segment_width 0.2)
    (pcb_text_width 0.3)
    (pcb_text_size 1.5 1.5)
    (mod_edge_width 0.12)
    (mod_text_size 1 1)
    (mod_text_width 0.15)
    (pad_size 1.524 1.524)
    (pad_drill 0.762)
    (pad_to_mask_clearance 0.051)
    (solder_mask_min_width 0.25)
    (aux_axis_origin 0 0)
    (visible_elements FFFFFF7F)
    (pcbplotparams
      (layerselection 0x010fc_ffffffff)
      (usegerberextensions false)
      (usegerberattributes false)
      (usegerberadvancedattributes false)
      (creategerberjobfile false)
      (excludeedgelayer true)
      (linewidth 0.100000)
      (plotframeref false)
      (viasonmask false)
      (mode 1)
      (useauxorigin false)
      (hpglpennumber 1)
      (hpglpenspeed 20)
      (hpglpendiameter 15.000000)
      (psnegative false)
      (psa4output false)
      (plotreference true)
      (plotvalue true)
      (plotinvisibletext false)
      (padsonsilk false)
      (subtractmaskfromsilk false)
      (outputformat 1)
      (mirror false)
      (drillshape 1)
      (scaleselection 1)
      (outputdirectory ""))
  )

  (net 0 "")
  (net 1 GND)
  (net 2 /VB)
  (net 3 /VD)
  (net 4 /VE)
  (net 5 /V+)
  (net 6 /VF)
  (net 7 /VH)
  (net 8 /VG)
  (net 9 /VC)
  (net 10 "Net-(U1-Pad8)")
  (net 11 /V-)

  (net_class Default "This is the default net class."
    (clearance 0.2)
    (trace_width 0.25)
    (via_dia 0.8)
    (via_drill 0.4)
    (uvia_dia 0.3)
    (uvia_drill 0.1)
    (add_net /V+)
    (add_net /V-)
    (add_net /VB)
    (add_net /VC)
    (add_net /VD)
    (add_net /VE)
    (add_net /VF)
    (add_net /VG)
    (add_net /VH)
    (add_net GND)
    (add_net "Net-(U1-Pad8)")
  )

  (module Battery:BatteryHolder_Bulgin_BX0036_1xC (layer F.Cu) (tedit 5C0C1564) (tstamp 60B943C9)
    (at 144.145 55.245 180)
    (descr "Bulgin Battery Holder, BX0036, Battery Type C (https://www.bulgin.com/products/pub/media/bulgin/data/Battery_holders.pdf)")
    (tags "Bulgin BX0036")
    (path /60BAE832)
    (fp_text reference Vin1 (at 27.8 -18.1 180) (layer F.SilkS)
      (effects (font (size 1 1) (thickness 0.15)))
    )
    (fp_text value 6 (at 27.8 1 180) (layer F.Fab)
      (effects (font (size 1 1) (thickness 0.15)))
    )
    (fp_text user %R (at 27.8 -1 180) (layer F.Fab)
      (effects (font (size 1 1) (thickness 0.1)))
    )
    (fp_line (start -1.81 17.06) (end 57.41 17.06) (layer F.SilkS) (width 0.15))
    (fp_line (start -1.81 -17.06) (end 57.41 -17.06) (layer F.SilkS) (width 0.15))
    (fp_line (start 57.41 -17.06) (end 57.41 17.06) (layer F.SilkS) (width 0.15))
    (fp_line (start -1.81 -17.06) (end -1.81 17.06) (layer F.SilkS) (width 0.15))
    (fp_line (start -2.3 17.5) (end -2.3 -17.5) (layer F.CrtYd) (width 0.05))
    (fp_line (start 57.9 17.5) (end -2.3 17.5) (layer F.CrtYd) (width 0.05))
    (fp_line (start 57.9 -17.5) (end 57.9 17.5) (layer F.CrtYd) (width 0.05))
    (fp_line (start -2.3 -17.5) (end 57.9 -17.5) (layer F.CrtYd) (width 0.05))
    (fp_text user + (at 3 -0.2 180) (layer F.SilkS)
      (effects (font (size 3 3) (thickness 0.45)))
    )
    (fp_line (start -1.75 -17) (end 57.35 -17) (layer F.Fab) (width 0.1))
    (fp_line (start 57.35 -17) (end 57.35 17) (layer F.Fab) (width 0.1))
    (fp_line (start 57.35 17) (end -1.75 17) (layer F.Fab) (width 0.1))
    (fp_line (start -1.75 17) (end -1.75 -17) (layer F.Fab) (width 0.1))
    (pad "" np_thru_hole circle (at 43.7 0 180) (size 3.8 3.8) (drill 3.8) (layers *.Cu *.Mask))
    (pad "" np_thru_hole circle (at 11.9 0 180) (size 3.8 3.8) (drill 3.8) (layers *.Cu *.Mask))
    (pad 1 thru_hole rect (at 0 0 180) (size 2.6 2.6) (drill 1.6) (layers *.Cu *.Mask)
      (net 5 /V+))
    (pad 2 thru_hole circle (at 55.6 0 180) (size 2.6 2.6) (drill 1.6) (layers *.Cu *.Mask)
      (net 1 GND))
    (model ${KISYS3DMOD}/Battery.3dshapes/BatteryHolder_Bulgin_BX0036_1xC.wrl
      (at (xyz 0 0 0))
      (scale (xyz 1 1 1))
      (rotate (xyz 0 0 0))
    )
  )

  (module Battery:BatteryHolder_Bulgin_BX0036_1xC (layer F.Cu) (tedit 5C0C1564) (tstamp 60B943B3)
    (at 88.22 91.5)
    (descr "Bulgin Battery Holder, BX0036, Battery Type C (https://www.bulgin.com/products/pub/media/bulgin/data/Battery_holders.pdf)")
    (tags "Bulgin BX0036")
    (path /60BD0BD1)
    (fp_text reference V-1 (at 27.8 -18.1) (layer F.SilkS)
      (effects (font (size 1 1) (thickness 0.15)))
    )
    (fp_text value 6 (at 27.8 1) (layer F.Fab)
      (effects (font (size 1 1) (thickness 0.15)))
    )
    (fp_text user %R (at 27.8 -1) (layer F.Fab)
      (effects (font (size 1 1) (thickness 0.1)))
    )
    (fp_line (start -1.81 17.06) (end 57.41 17.06) (layer F.SilkS) (width 0.15))
    (fp_line (start -1.81 -17.06) (end 57.41 -17.06) (layer F.SilkS) (width 0.15))
    (fp_line (start 57.41 -17.06) (end 57.41 17.06) (layer F.SilkS) (width 0.15))
    (fp_line (start -1.81 -17.06) (end -1.81 17.06) (layer F.SilkS) (width 0.15))
    (fp_line (start -2.3 17.5) (end -2.3 -17.5) (layer F.CrtYd) (width 0.05))
    (fp_line (start 57.9 17.5) (end -2.3 17.5) (layer F.CrtYd) (width 0.05))
    (fp_line (start 57.9 -17.5) (end 57.9 17.5) (layer F.CrtYd) (width 0.05))
    (fp_line (start -2.3 -17.5) (end 57.9 -17.5) (layer F.CrtYd) (width 0.05))
    (fp_text user + (at 3 -0.2) (layer F.SilkS)
      (effects (font (size 3 3) (thickness 0.45)))
    )
    (fp_line (start -1.75 -17) (end 57.35 -17) (layer F.Fab) (width 0.1))
    (fp_line (start 57.35 -17) (end 57.35 17) (layer F.Fab) (width 0.1))
    (fp_line (start 57.35 17) (end -1.75 17) (layer F.Fab) (width 0.1))
    (fp_line (start -1.75 17) (end -1.75 -17) (layer F.Fab) (width 0.1))
    (pad "" np_thru_hole circle (at 43.7 0) (size 3.8 3.8) (drill 3.8) (layers *.Cu *.Mask))
    (pad "" np_thru_hole circle (at 11.9 0) (size 3.8 3.8) (drill 3.8) (layers *.Cu *.Mask))
    (pad 1 thru_hole rect (at 0 0) (size 2.6 2.6) (drill 1.6) (layers *.Cu *.Mask)
      (net 1 GND))
    (pad 2 thru_hole circle (at 55.6 0) (size 2.6 2.6) (drill 1.6) (layers *.Cu *.Mask)
      (net 11 /V-))
    (model ${KISYS3DMOD}/Battery.3dshapes/BatteryHolder_Bulgin_BX0036_1xC.wrl
      (at (xyz 0 0 0))
      (scale (xyz 1 1 1))
      (rotate (xyz 0 0 0))
    )
  )

  (module Package_SO:SOP-8_6.62x9.15mm_P2.54mm (layer F.Cu) (tedit 5C3278E0) (tstamp 60B9439D)
    (at 160.655 50.8)
    (descr "SOP, 8 Pin (http://www.ti.com/lit/ds/symlink/iso1050.pdf), generated with kicad-footprint-generator ipc_gullwing_generator.py")
    (tags "SOP SO")
    (path /60B96C9C)
    (attr smd)
    (fp_text reference U1 (at 0 -5.52) (layer F.SilkS)
      (effects (font (size 1 1) (thickness 0.15)))
    )
    (fp_text value LM741 (at 0 5.52) (layer F.Fab)
      (effects (font (size 1 1) (thickness 0.15)))
    )
    (fp_text user %R (at 0 0) (layer F.Fab)
      (effects (font (size 1 1) (thickness 0.15)))
    )
    (fp_line (start 5.95 -4.82) (end -5.95 -4.82) (layer F.CrtYd) (width 0.05))
    (fp_line (start 5.95 4.82) (end 5.95 -4.82) (layer F.CrtYd) (width 0.05))
    (fp_line (start -5.95 4.82) (end 5.95 4.82) (layer F.CrtYd) (width 0.05))
    (fp_line (start -5.95 -4.82) (end -5.95 4.82) (layer F.CrtYd) (width 0.05))
    (fp_line (start -3.31 -3.575) (end -2.31 -4.575) (layer F.Fab) (width 0.1))
    (fp_line (start -3.31 4.575) (end -3.31 -3.575) (layer F.Fab) (width 0.1))
    (fp_line (start 3.31 4.575) (end -3.31 4.575) (layer F.Fab) (width 0.1))
    (fp_line (start 3.31 -4.575) (end 3.31 4.575) (layer F.Fab) (width 0.1))
    (fp_line (start -2.31 -4.575) (end 3.31 -4.575) (layer F.Fab) (width 0.1))
    (fp_line (start -3.42 -4.395) (end -5.7 -4.395) (layer F.SilkS) (width 0.12))
    (fp_line (start -3.42 -4.685) (end -3.42 -4.395) (layer F.SilkS) (width 0.12))
    (fp_line (start 0 -4.685) (end -3.42 -4.685) (layer F.SilkS) (width 0.12))
    (fp_line (start 3.42 -4.685) (end 3.42 -4.395) (layer F.SilkS) (width 0.12))
    (fp_line (start 0 -4.685) (end 3.42 -4.685) (layer F.SilkS) (width 0.12))
    (fp_line (start -3.42 4.685) (end -3.42 4.395) (layer F.SilkS) (width 0.12))
    (fp_line (start 0 4.685) (end -3.42 4.685) (layer F.SilkS) (width 0.12))
    (fp_line (start 3.42 4.685) (end 3.42 4.395) (layer F.SilkS) (width 0.12))
    (fp_line (start 0 4.685) (end 3.42 4.685) (layer F.SilkS) (width 0.12))
    (pad 8 smd roundrect (at 4.525 -3.81) (size 2.35 0.65) (layers F.Cu F.Paste F.Mask) (roundrect_rratio 0.25)
      (net 10 "Net-(U1-Pad8)"))
    (pad 7 smd roundrect (at 4.525 -1.27) (size 2.35 0.65) (layers F.Cu F.Paste F.Mask) (roundrect_rratio 0.25)
      (net 5 /V+))
    (pad 6 smd roundrect (at 4.525 1.27) (size 2.35 0.65) (layers F.Cu F.Paste F.Mask) (roundrect_rratio 0.25)
      (net 9 /VC))
    (pad 5 smd roundrect (at 4.525 3.81) (size 2.35 0.65) (layers F.Cu F.Paste F.Mask) (roundrect_rratio 0.25)
      (net 1 GND))
    (pad 4 smd roundrect (at -4.525 3.81) (size 2.35 0.65) (layers F.Cu F.Paste F.Mask) (roundrect_rratio 0.25)
      (net 11 /V-))
    (pad 3 smd roundrect (at -4.525 1.27) (size 2.35 0.65) (layers F.Cu F.Paste F.Mask) (roundrect_rratio 0.25)
      (net 2 /VB))
    (pad 2 smd roundrect (at -4.525 -1.27) (size 2.35 0.65) (layers F.Cu F.Paste F.Mask) (roundrect_rratio 0.25)
      (net 8 /VG))
    (pad 1 smd roundrect (at -4.525 -3.81) (size 2.35 0.65) (layers F.Cu F.Paste F.Mask) (roundrect_rratio 0.25)
      (net 1 GND))
    (model ${KISYS3DMOD}/Package_SO.3dshapes/SOP-8_6.62x9.15mm_P2.54mm.wrl
      (at (xyz 0 0 0))
      (scale (xyz 1 1 1))
      (rotate (xyz 0 0 0))
    )
  )

  (module Resistor_THT:R_Axial_DIN0204_L3.6mm_D1.6mm_P1.90mm_Vertical (layer F.Cu) (tedit 5AE5139B) (tstamp 60B9437E)
    (at 168.275 78.105 180)
    (descr "Resistor, Axial_DIN0204 series, Axial, Vertical, pin pitch=1.9mm, 0.167W, length*diameter=3.6*1.6mm^2, http://cdn-reichelt.de/documents/datenblatt/B400/1_4W%23YAG.pdf")
    (tags "Resistor Axial_DIN0204 series Axial Vertical pin pitch 1.9mm 0.167W length 3.6mm diameter 1.6mm")
    (path /60BAAD95)
    (fp_text reference Rload1 (at 0.95 -1.92 180) (layer F.SilkS)
      (effects (font (size 1 1) (thickness 0.15)))
    )
    (fp_text value 22 (at 0.95 1.92 180) (layer F.Fab)
      (effects (font (size 1 1) (thickness 0.15)))
    )
    (fp_text user %R (at 0.95 -1.92 180) (layer F.Fab)
      (effects (font (size 1 1) (thickness 0.15)))
    )
    (fp_line (start 2.86 -1.05) (end -1.05 -1.05) (layer F.CrtYd) (width 0.05))
    (fp_line (start 2.86 1.05) (end 2.86 -1.05) (layer F.CrtYd) (width 0.05))
    (fp_line (start -1.05 1.05) (end 2.86 1.05) (layer F.CrtYd) (width 0.05))
    (fp_line (start -1.05 -1.05) (end -1.05 1.05) (layer F.CrtYd) (width 0.05))
    (fp_line (start 0 0) (end 1.9 0) (layer F.Fab) (width 0.1))
    (fp_circle (center 0 0) (end 0.8 0) (layer F.Fab) (width 0.1))
    (fp_arc (start 0 0) (end 0.417133 -0.7) (angle -233.92106) (layer F.SilkS) (width 0.12))
    (pad 2 thru_hole oval (at 1.9 0 180) (size 1.4 1.4) (drill 0.7) (layers *.Cu *.Mask)
      (net 1 GND))
    (pad 1 thru_hole circle (at 0 0 180) (size 1.4 1.4) (drill 0.7) (layers *.Cu *.Mask)
      (net 6 /VF))
    (model ${KISYS3DMOD}/Resistor_THT.3dshapes/R_Axial_DIN0204_L3.6mm_D1.6mm_P1.90mm_Vertical.wrl
      (at (xyz 0 0 0))
      (scale (xyz 1 1 1))
      (rotate (xyz 0 0 0))
    )
  )

  (module Resistor_THT:R_Axial_DIN0204_L3.6mm_D1.6mm_P1.90mm_Vertical (layer F.Cu) (tedit 5AE5139B) (tstamp 60B94370)
    (at 168.91 59.69 180)
    (descr "Resistor, Axial_DIN0204 series, Axial, Vertical, pin pitch=1.9mm, 0.167W, length*diameter=3.6*1.6mm^2, http://cdn-reichelt.de/documents/datenblatt/B400/1_4W%23YAG.pdf")
    (tags "Resistor Axial_DIN0204 series Axial Vertical pin pitch 1.9mm 0.167W length 3.6mm diameter 1.6mm")
    (path /60B944D4)
    (fp_text reference R7 (at 0.95 -1.92 180) (layer F.SilkS)
      (effects (font (size 1 1) (thickness 0.15)))
    )
    (fp_text value 80 (at 0.95 1.92 180) (layer F.Fab)
      (effects (font (size 1 1) (thickness 0.15)))
    )
    (fp_text user %R (at 0.95 -1.92 180) (layer F.Fab)
      (effects (font (size 1 1) (thickness 0.15)))
    )
    (fp_line (start 2.86 -1.05) (end -1.05 -1.05) (layer F.CrtYd) (width 0.05))
    (fp_line (start 2.86 1.05) (end 2.86 -1.05) (layer F.CrtYd) (width 0.05))
    (fp_line (start -1.05 1.05) (end 2.86 1.05) (layer F.CrtYd) (width 0.05))
    (fp_line (start -1.05 -1.05) (end -1.05 1.05) (layer F.CrtYd) (width 0.05))
    (fp_line (start 0 0) (end 1.9 0) (layer F.Fab) (width 0.1))
    (fp_circle (center 0 0) (end 0.8 0) (layer F.Fab) (width 0.1))
    (fp_arc (start 0 0) (end 0.417133 -0.7) (angle -233.92106) (layer F.SilkS) (width 0.12))
    (pad 2 thru_hole oval (at 1.9 0 180) (size 1.4 1.4) (drill 0.7) (layers *.Cu *.Mask)
      (net 9 /VC))
    (pad 1 thru_hole circle (at 0 0 180) (size 1.4 1.4) (drill 0.7) (layers *.Cu *.Mask)
      (net 3 /VD))
    (model ${KISYS3DMOD}/Resistor_THT.3dshapes/R_Axial_DIN0204_L3.6mm_D1.6mm_P1.90mm_Vertical.wrl
      (at (xyz 0 0 0))
      (scale (xyz 1 1 1))
      (rotate (xyz 0 0 0))
    )
  )

  (module Resistor_THT:R_Axial_DIN0204_L3.6mm_D1.6mm_P1.90mm_Vertical (layer F.Cu) (tedit 5AE5139B) (tstamp 60B94362)
    (at 168.275 67.945 90)
    (descr "Resistor, Axial_DIN0204 series, Axial, Vertical, pin pitch=1.9mm, 0.167W, length*diameter=3.6*1.6mm^2, http://cdn-reichelt.de/documents/datenblatt/B400/1_4W%23YAG.pdf")
    (tags "Resistor Axial_DIN0204 series Axial Vertical pin pitch 1.9mm 0.167W length 3.6mm diameter 1.6mm")
    (path /60B9F94D)
    (fp_text reference R6 (at 0.95 -1.92 90) (layer F.SilkS)
      (effects (font (size 1 1) (thickness 0.15)))
    )
    (fp_text value 2k (at 0.95 1.92 90) (layer F.Fab)
      (effects (font (size 1 1) (thickness 0.15)))
    )
    (fp_text user %R (at 0.95 -1.92 90) (layer F.Fab)
      (effects (font (size 1 1) (thickness 0.15)))
    )
    (fp_line (start 2.86 -1.05) (end -1.05 -1.05) (layer F.CrtYd) (width 0.05))
    (fp_line (start 2.86 1.05) (end 2.86 -1.05) (layer F.CrtYd) (width 0.05))
    (fp_line (start -1.05 1.05) (end 2.86 1.05) (layer F.CrtYd) (width 0.05))
    (fp_line (start -1.05 -1.05) (end -1.05 1.05) (layer F.CrtYd) (width 0.05))
    (fp_line (start 0 0) (end 1.9 0) (layer F.Fab) (width 0.1))
    (fp_circle (center 0 0) (end 0.8 0) (layer F.Fab) (width 0.1))
    (fp_arc (start 0 0) (end 0.417133 -0.7) (angle -233.92106) (layer F.SilkS) (width 0.12))
    (pad 2 thru_hole oval (at 1.9 0 90) (size 1.4 1.4) (drill 0.7) (layers *.Cu *.Mask)
      (net 1 GND))
    (pad 1 thru_hole circle (at 0 0 90) (size 1.4 1.4) (drill 0.7) (layers *.Cu *.Mask)
      (net 7 /VH))
    (model ${KISYS3DMOD}/Resistor_THT.3dshapes/R_Axial_DIN0204_L3.6mm_D1.6mm_P1.90mm_Vertical.wrl
      (at (xyz 0 0 0))
      (scale (xyz 1 1 1))
      (rotate (xyz 0 0 0))
    )
  )

  (module Resistor_THT:R_Axial_DIN0204_L3.6mm_D1.6mm_P1.90mm_Vertical (layer F.Cu) (tedit 5AE5139B) (tstamp 60B94354)
    (at 174.625 66.04 270)
    (descr "Resistor, Axial_DIN0204 series, Axial, Vertical, pin pitch=1.9mm, 0.167W, length*diameter=3.6*1.6mm^2, http://cdn-reichelt.de/documents/datenblatt/B400/1_4W%23YAG.pdf")
    (tags "Resistor Axial_DIN0204 series Axial Vertical pin pitch 1.9mm 0.167W length 3.6mm diameter 1.6mm")
    (path /60B9F354)
    (fp_text reference R5 (at 0.95 -1.92 270) (layer F.SilkS)
      (effects (font (size 1 1) (thickness 0.15)))
    )
    (fp_text value 1.5k (at 0.95 1.92 270) (layer F.Fab)
      (effects (font (size 1 1) (thickness 0.15)))
    )
    (fp_text user %R (at 0.95 -1.92 270) (layer F.Fab)
      (effects (font (size 1 1) (thickness 0.15)))
    )
    (fp_line (start 2.86 -1.05) (end -1.05 -1.05) (layer F.CrtYd) (width 0.05))
    (fp_line (start 2.86 1.05) (end 2.86 -1.05) (layer F.CrtYd) (width 0.05))
    (fp_line (start -1.05 1.05) (end 2.86 1.05) (layer F.CrtYd) (width 0.05))
    (fp_line (start -1.05 -1.05) (end -1.05 1.05) (layer F.CrtYd) (width 0.05))
    (fp_line (start 0 0) (end 1.9 0) (layer F.Fab) (width 0.1))
    (fp_circle (center 0 0) (end 0.8 0) (layer F.Fab) (width 0.1))
    (fp_arc (start 0 0) (end 0.417133 -0.7) (angle -233.92106) (layer F.SilkS) (width 0.12))
    (pad 2 thru_hole oval (at 1.9 0 270) (size 1.4 1.4) (drill 0.7) (layers *.Cu *.Mask)
      (net 7 /VH))
    (pad 1 thru_hole circle (at 0 0 270) (size 1.4 1.4) (drill 0.7) (layers *.Cu *.Mask)
      (net 4 /VE))
    (model ${KISYS3DMOD}/Resistor_THT.3dshapes/R_Axial_DIN0204_L3.6mm_D1.6mm_P1.90mm_Vertical.wrl
      (at (xyz 0 0 0))
      (scale (xyz 1 1 1))
      (rotate (xyz 0 0 0))
    )
  )

  (module Resistor_THT:R_Axial_DIN0204_L3.6mm_D1.6mm_P1.90mm_Vertical (layer F.Cu) (tedit 5AE5139B) (tstamp 60B94346)
    (at 174.625 60.325 90)
    (descr "Resistor, Axial_DIN0204 series, Axial, Vertical, pin pitch=1.9mm, 0.167W, length*diameter=3.6*1.6mm^2, http://cdn-reichelt.de/documents/datenblatt/B400/1_4W%23YAG.pdf")
    (tags "Resistor Axial_DIN0204 series Axial Vertical pin pitch 1.9mm 0.167W length 3.6mm diameter 1.6mm")
    (path /60BA2850)
    (fp_text reference R4 (at 0.95 -1.92 90) (layer F.SilkS)
      (effects (font (size 1 1) (thickness 0.15)))
    )
    (fp_text value 4 (at 0.95 1.92 90) (layer F.Fab)
      (effects (font (size 1 1) (thickness 0.15)))
    )
    (fp_text user %R (at 0.95 -1.92 90) (layer F.Fab)
      (effects (font (size 1 1) (thickness 0.15)))
    )
    (fp_line (start 2.86 -1.05) (end -1.05 -1.05) (layer F.CrtYd) (width 0.05))
    (fp_line (start 2.86 1.05) (end 2.86 -1.05) (layer F.CrtYd) (width 0.05))
    (fp_line (start -1.05 1.05) (end 2.86 1.05) (layer F.CrtYd) (width 0.05))
    (fp_line (start -1.05 -1.05) (end -1.05 1.05) (layer F.CrtYd) (width 0.05))
    (fp_line (start 0 0) (end 1.9 0) (layer F.Fab) (width 0.1))
    (fp_circle (center 0 0) (end 0.8 0) (layer F.Fab) (width 0.1))
    (fp_arc (start 0 0) (end 0.417133 -0.7) (angle -233.92106) (layer F.SilkS) (width 0.12))
    (pad 2 thru_hole oval (at 1.9 0 90) (size 1.4 1.4) (drill 0.7) (layers *.Cu *.Mask)
      (net 4 /VE))
    (pad 1 thru_hole circle (at 0 0 90) (size 1.4 1.4) (drill 0.7) (layers *.Cu *.Mask)
      (net 6 /VF))
    (model ${KISYS3DMOD}/Resistor_THT.3dshapes/R_Axial_DIN0204_L3.6mm_D1.6mm_P1.90mm_Vertical.wrl
      (at (xyz 0 0 0))
      (scale (xyz 1 1 1))
      (rotate (xyz 0 0 0))
    )
  )

  (module Resistor_THT:R_Axial_DIN0204_L3.6mm_D1.6mm_P1.90mm_Vertical (layer F.Cu) (tedit 5AE5139B) (tstamp 60B94338)
    (at 173.99 79.375 270)
    (descr "Resistor, Axial_DIN0204 series, Axial, Vertical, pin pitch=1.9mm, 0.167W, length*diameter=3.6*1.6mm^2, http://cdn-reichelt.de/documents/datenblatt/B400/1_4W%23YAG.pdf")
    (tags "Resistor Axial_DIN0204 series Axial Vertical pin pitch 1.9mm 0.167W length 3.6mm diameter 1.6mm")
    (path /60BA7898)
    (fp_text reference R3 (at 0.95 -1.92 270) (layer F.SilkS)
      (effects (font (size 1 1) (thickness 0.15)))
    )
    (fp_text value 20k (at 0.95 1.92 270) (layer F.Fab)
      (effects (font (size 1 1) (thickness 0.15)))
    )
    (fp_text user %R (at 0.95 -1.92 270) (layer F.Fab)
      (effects (font (size 1 1) (thickness 0.15)))
    )
    (fp_line (start 2.86 -1.05) (end -1.05 -1.05) (layer F.CrtYd) (width 0.05))
    (fp_line (start 2.86 1.05) (end 2.86 -1.05) (layer F.CrtYd) (width 0.05))
    (fp_line (start -1.05 1.05) (end 2.86 1.05) (layer F.CrtYd) (width 0.05))
    (fp_line (start -1.05 -1.05) (end -1.05 1.05) (layer F.CrtYd) (width 0.05))
    (fp_line (start 0 0) (end 1.9 0) (layer F.Fab) (width 0.1))
    (fp_circle (center 0 0) (end 0.8 0) (layer F.Fab) (width 0.1))
    (fp_arc (start 0 0) (end 0.417133 -0.7) (angle -233.92106) (layer F.SilkS) (width 0.12))
    (pad 2 thru_hole oval (at 1.9 0 270) (size 1.4 1.4) (drill 0.7) (layers *.Cu *.Mask)
      (net 1 GND))
    (pad 1 thru_hole circle (at 0 0 270) (size 1.4 1.4) (drill 0.7) (layers *.Cu *.Mask)
      (net 8 /VG))
    (model ${KISYS3DMOD}/Resistor_THT.3dshapes/R_Axial_DIN0204_L3.6mm_D1.6mm_P1.90mm_Vertical.wrl
      (at (xyz 0 0 0))
      (scale (xyz 1 1 1))
      (rotate (xyz 0 0 0))
    )
  )

  (module Resistor_THT:R_Axial_DIN0204_L3.6mm_D1.6mm_P1.90mm_Vertical (layer F.Cu) (tedit 5AE5139B) (tstamp 60B9432A)
    (at 172.085 74.295 90)
    (descr "Resistor, Axial_DIN0204 series, Axial, Vertical, pin pitch=1.9mm, 0.167W, length*diameter=3.6*1.6mm^2, http://cdn-reichelt.de/documents/datenblatt/B400/1_4W%23YAG.pdf")
    (tags "Resistor Axial_DIN0204 series Axial Vertical pin pitch 1.9mm 0.167W length 3.6mm diameter 1.6mm")
    (path /60BA717D)
    (fp_text reference R2 (at 0.95 -1.92 90) (layer F.SilkS)
      (effects (font (size 1 1) (thickness 0.15)))
    )
    (fp_text value 13k (at 0.95 1.92 90) (layer F.Fab)
      (effects (font (size 1 1) (thickness 0.15)))
    )
    (fp_text user %R (at 0.95 -1.92 90) (layer F.Fab)
      (effects (font (size 1 1) (thickness 0.15)))
    )
    (fp_line (start 2.86 -1.05) (end -1.05 -1.05) (layer F.CrtYd) (width 0.05))
    (fp_line (start 2.86 1.05) (end 2.86 -1.05) (layer F.CrtYd) (width 0.05))
    (fp_line (start -1.05 1.05) (end 2.86 1.05) (layer F.CrtYd) (width 0.05))
    (fp_line (start -1.05 -1.05) (end -1.05 1.05) (layer F.CrtYd) (width 0.05))
    (fp_line (start 0 0) (end 1.9 0) (layer F.Fab) (width 0.1))
    (fp_circle (center 0 0) (end 0.8 0) (layer F.Fab) (width 0.1))
    (fp_arc (start 0 0) (end 0.417133 -0.7) (angle -233.92106) (layer F.SilkS) (width 0.12))
    (pad 2 thru_hole oval (at 1.9 0 90) (size 1.4 1.4) (drill 0.7) (layers *.Cu *.Mask)
      (net 8 /VG))
    (pad 1 thru_hole circle (at 0 0 90) (size 1.4 1.4) (drill 0.7) (layers *.Cu *.Mask)
      (net 6 /VF))
    (model ${KISYS3DMOD}/Resistor_THT.3dshapes/R_Axial_DIN0204_L3.6mm_D1.6mm_P1.90mm_Vertical.wrl
      (at (xyz 0 0 0))
      (scale (xyz 1 1 1))
      (rotate (xyz 0 0 0))
    )
  )

  (module Resistor_THT:R_Axial_DIN0204_L3.6mm_D1.6mm_P1.90mm_Vertical (layer F.Cu) (tedit 5AE5139B) (tstamp 60B9431C)
    (at 150.495 50.165 270)
    (descr "Resistor, Axial_DIN0204 series, Axial, Vertical, pin pitch=1.9mm, 0.167W, length*diameter=3.6*1.6mm^2, http://cdn-reichelt.de/documents/datenblatt/B400/1_4W%23YAG.pdf")
    (tags "Resistor Axial_DIN0204 series Axial Vertical pin pitch 1.9mm 0.167W length 3.6mm diameter 1.6mm")
    (path /60B941D5)
    (fp_text reference R1 (at 0.95 -1.92 270) (layer F.SilkS)
      (effects (font (size 1 1) (thickness 0.15)))
    )
    (fp_text value 4k (at 0.95 1.92 270) (layer F.Fab)
      (effects (font (size 1 1) (thickness 0.15)))
    )
    (fp_text user %R (at 0.95 -1.92 270) (layer F.Fab)
      (effects (font (size 1 1) (thickness 0.15)))
    )
    (fp_line (start 2.86 -1.05) (end -1.05 -1.05) (layer F.CrtYd) (width 0.05))
    (fp_line (start 2.86 1.05) (end 2.86 -1.05) (layer F.CrtYd) (width 0.05))
    (fp_line (start -1.05 1.05) (end 2.86 1.05) (layer F.CrtYd) (width 0.05))
    (fp_line (start -1.05 -1.05) (end -1.05 1.05) (layer F.CrtYd) (width 0.05))
    (fp_line (start 0 0) (end 1.9 0) (layer F.Fab) (width 0.1))
    (fp_circle (center 0 0) (end 0.8 0) (layer F.Fab) (width 0.1))
    (fp_arc (start 0 0) (end 0.417133 -0.7) (angle -233.92106) (layer F.SilkS) (width 0.12))
    (pad 2 thru_hole oval (at 1.9 0 270) (size 1.4 1.4) (drill 0.7) (layers *.Cu *.Mask)
      (net 2 /VB))
    (pad 1 thru_hole circle (at 0 0 270) (size 1.4 1.4) (drill 0.7) (layers *.Cu *.Mask)
      (net 5 /V+))
    (model ${KISYS3DMOD}/Resistor_THT.3dshapes/R_Axial_DIN0204_L3.6mm_D1.6mm_P1.90mm_Vertical.wrl
      (at (xyz 0 0 0))
      (scale (xyz 1 1 1))
      (rotate (xyz 0 0 0))
    )
  )

  (module Package_TO_SOT_THT:TO-39-3 (layer F.Cu) (tedit 5A02FF81) (tstamp 60B9430E)
    (at 156.845 83.82 90)
    (descr TO-39-3)
    (tags TO-39-3)
    (path /60BA3216)
    (fp_text reference Q2 (at 2.54 -5.82 90) (layer F.SilkS)
      (effects (font (size 1 1) (thickness 0.15)))
    )
    (fp_text value Q_NPN_BCE (at 2.54 5.82 90) (layer F.Fab)
      (effects (font (size 1 1) (thickness 0.15)))
    )
    (fp_arc (start 2.54 0) (end -0.457084 -3.774902) (angle 346.9) (layer F.SilkS) (width 0.12))
    (fp_arc (start 2.54 0) (end -0.465408 -3.61352) (angle 349.5) (layer F.Fab) (width 0.1))
    (fp_circle (center 2.54 0) (end 6.79 0) (layer F.Fab) (width 0.1))
    (fp_line (start 7.49 -4.95) (end -2.41 -4.95) (layer F.CrtYd) (width 0.05))
    (fp_line (start 7.49 4.95) (end 7.49 -4.95) (layer F.CrtYd) (width 0.05))
    (fp_line (start -2.41 4.95) (end 7.49 4.95) (layer F.CrtYd) (width 0.05))
    (fp_line (start -2.41 -4.95) (end -2.41 4.95) (layer F.CrtYd) (width 0.05))
    (fp_line (start -2.125856 -3.888039) (end -1.234902 -2.997084) (layer F.SilkS) (width 0.12))
    (fp_line (start -1.348039 -4.665856) (end -2.125856 -3.888039) (layer F.SilkS) (width 0.12))
    (fp_line (start -0.457084 -3.774902) (end -1.348039 -4.665856) (layer F.SilkS) (width 0.12))
    (fp_line (start -1.879621 -3.81151) (end -1.07352 -3.005408) (layer F.Fab) (width 0.1))
    (fp_line (start -1.27151 -4.419621) (end -1.879621 -3.81151) (layer F.Fab) (width 0.1))
    (fp_line (start -0.465408 -3.61352) (end -1.27151 -4.419621) (layer F.Fab) (width 0.1))
    (fp_text user %R (at 2.54 -5.82 90) (layer F.Fab)
      (effects (font (size 1 1) (thickness 0.15)))
    )
    (pad 3 thru_hole oval (at 5.08 0 90) (size 1.2 1.2) (drill 0.7) (layers *.Cu *.Mask)
      (net 3 /VD))
    (pad 2 thru_hole oval (at 2.54 2.54 90) (size 1.2 1.2) (drill 0.7) (layers *.Cu *.Mask)
      (net 6 /VF))
    (pad 1 thru_hole oval (at 0 0 90) (size 1.6 1.2) (drill 0.7) (layers *.Cu *.Mask)
      (net 7 /VH))
    (model ${KISYS3DMOD}/Package_TO_SOT_THT.3dshapes/TO-39-3.wrl
      (at (xyz 0 0 0))
      (scale (xyz 1 1 1))
      (rotate (xyz 0 0 0))
    )
  )

  (module Package_TO_SOT_THT:TO-92 (layer F.Cu) (tedit 5A279852) (tstamp 60B942F9)
    (at 171.45 51.435)
    (descr "TO-92 leads molded, narrow, drill 0.75mm (see NXP sot054_po.pdf)")
    (tags "to-92 sc-43 sc-43a sot54 PA33 transistor")
    (path /60B9D42C)
    (fp_text reference Q1 (at 1.27 -3.56) (layer F.SilkS)
      (effects (font (size 1 1) (thickness 0.15)))
    )
    (fp_text value Q_NPN_Darlington_BCE (at 1.27 2.79) (layer F.Fab)
      (effects (font (size 1 1) (thickness 0.15)))
    )
    (fp_arc (start 1.27 0) (end 1.27 -2.6) (angle 135) (layer F.SilkS) (width 0.12))
    (fp_arc (start 1.27 0) (end 1.27 -2.48) (angle -135) (layer F.Fab) (width 0.1))
    (fp_arc (start 1.27 0) (end 1.27 -2.6) (angle -135) (layer F.SilkS) (width 0.12))
    (fp_arc (start 1.27 0) (end 1.27 -2.48) (angle 135) (layer F.Fab) (width 0.1))
    (fp_line (start 4 2.01) (end -1.46 2.01) (layer F.CrtYd) (width 0.05))
    (fp_line (start 4 2.01) (end 4 -2.73) (layer F.CrtYd) (width 0.05))
    (fp_line (start -1.46 -2.73) (end -1.46 2.01) (layer F.CrtYd) (width 0.05))
    (fp_line (start -1.46 -2.73) (end 4 -2.73) (layer F.CrtYd) (width 0.05))
    (fp_line (start -0.5 1.75) (end 3 1.75) (layer F.Fab) (width 0.1))
    (fp_line (start -0.53 1.85) (end 3.07 1.85) (layer F.SilkS) (width 0.12))
    (fp_text user %R (at 1.27 -3.56) (layer F.Fab)
      (effects (font (size 1 1) (thickness 0.15)))
    )
    (pad 1 thru_hole rect (at 0 0 90) (size 1.3 1.3) (drill 0.75) (layers *.Cu *.Mask)
      (net 3 /VD))
    (pad 3 thru_hole circle (at 2.54 0 90) (size 1.3 1.3) (drill 0.75) (layers *.Cu *.Mask)
      (net 4 /VE))
    (pad 2 thru_hole circle (at 1.27 -1.27 90) (size 1.3 1.3) (drill 0.75) (layers *.Cu *.Mask)
      (net 5 /V+))
    (model ${KISYS3DMOD}/Package_TO_SOT_THT.3dshapes/TO-92.wrl
      (at (xyz 0 0 0))
      (scale (xyz 1 1 1))
      (rotate (xyz 0 0 0))
    )
  )

  (module Diode_THT:D_5KPW_P7.62mm_Vertical_AnodeUp (layer F.Cu) (tedit 5AE50CD5) (tstamp 60B942E7)
    (at 154.94 67.31)
    (descr "Diode, 5KPW series, Axial, Vertical, pin pitch=7.62mm, , length*diameter=9*8mm^2, , http://www.diodes.com/_files/packages/8686949.gif")
    (tags "Diode 5KPW series Axial Vertical pin pitch 7.62mm  length 9mm diameter 8mm")
    (path /60B96025)
    (fp_text reference Dz1 (at 3.81 -5.12) (layer F.SilkS)
      (effects (font (size 1 1) (thickness 0.15)))
    )
    (fp_text value 10 (at 3.81 5.12) (layer F.Fab)
      (effects (font (size 1 1) (thickness 0.15)))
    )
    (fp_text user A (at 7.62 2.6) (layer F.SilkS)
      (effects (font (size 1 1) (thickness 0.15)))
    )
    (fp_text user A (at 7.62 2.6) (layer F.Fab)
      (effects (font (size 1 1) (thickness 0.15)))
    )
    (fp_text user %R (at 0 -2.1) (layer F.Fab)
      (effects (font (size 1 1) (thickness 0.15)))
    )
    (fp_line (start 9.47 -4.25) (end -4.25 -4.25) (layer F.CrtYd) (width 0.05))
    (fp_line (start 9.47 4.25) (end 9.47 -4.25) (layer F.CrtYd) (width 0.05))
    (fp_line (start -4.25 4.25) (end 9.47 4.25) (layer F.CrtYd) (width 0.05))
    (fp_line (start -4.25 -4.25) (end -4.25 4.25) (layer F.CrtYd) (width 0.05))
    (fp_line (start 4.12 0) (end 5.72 0) (layer F.SilkS) (width 0.12))
    (fp_line (start 0 0) (end 7.62 0) (layer F.Fab) (width 0.1))
    (fp_circle (center 0 0) (end 4.12 0) (layer F.SilkS) (width 0.12))
    (fp_circle (center 0 0) (end 4 0) (layer F.Fab) (width 0.1))
    (pad 2 thru_hole oval (at 7.62 0) (size 3.2 3.2) (drill 1.6) (layers *.Cu *.Mask)
      (net 1 GND))
    (pad 1 thru_hole rect (at 0 0) (size 3.2 3.2) (drill 1.6) (layers *.Cu *.Mask)
      (net 2 /VB))
    (model ${KISYS3DMOD}/Diode_THT.3dshapes/D_5KPW_P7.62mm_Vertical_AnodeUp.wrl
      (at (xyz 0 0 0))
      (scale (xyz 1 1 1))
      (rotate (xyz 0 0 0))
    )
  )

  (segment (start 169.545 81.275) (end 173.99 81.275) (width 0.25) (layer F.Cu) (net 1))
  (segment (start 166.375 78.105) (end 169.545 81.275) (width 0.25) (layer F.Cu) (net 1))
  (segment (start 162.56 74.29) (end 166.375 78.105) (width 0.25) (layer B.Cu) (net 1))
  (segment (start 162.56 67.31) (end 162.56 74.29) (width 0.25) (layer B.Cu) (net 1))
  (segment (start 167.01 67.31) (end 168.275 66.045) (width 0.25) (layer B.Cu) (net 1))
  (segment (start 162.56 67.31) (end 167.01 67.31) (width 0.25) (layer B.Cu) (net 1))
  (segment (start 157.56 46.99) (end 165.18 54.61) (width 0.25) (layer F.Cu) (net 1))
  (segment (start 156.13 46.99) (end 157.56 46.99) (width 0.25) (layer F.Cu) (net 1))
  (segment (start 96.8 46.99) (end 88.545 55.245) (width 0.25) (layer F.Cu) (net 1))
  (segment (start 156.13 46.99) (end 96.8 46.99) (width 0.25) (layer F.Cu) (net 1))
  (segment (start 88.545 91.175) (end 88.22 91.5) (width 0.25) (layer F.Cu) (net 1))
  (segment (start 88.545 55.245) (end 88.545 91.175) (width 0.25) (layer F.Cu) (net 1))
  (segment (start 167.575001 65.345001) (end 168.275 66.045) (width 0.25) (layer F.Cu) (net 1))
  (segment (start 165.984999 63.754999) (end 167.575001 65.345001) (width 0.25) (layer F.Cu) (net 1))
  (segment (start 165.984999 55.414999) (end 165.984999 63.754999) (width 0.25) (layer F.Cu) (net 1))
  (segment (start 165.18 54.61) (end 165.984999 55.414999) (width 0.25) (layer F.Cu) (net 1))
  (segment (start 154.94 67.31) (end 154.94 53.34) (width 0.25) (layer B.Cu) (net 2))
  (segment (start 153.665 52.065) (end 150.495 52.065) (width 0.25) (layer B.Cu) (net 2))
  (segment (start 154.94 53.34) (end 153.665 52.065) (width 0.25) (layer B.Cu) (net 2))
  (segment (start 154.94 53.34) (end 156.21 52.07) (width 0.25) (layer B.Cu) (net 2))
  (segment (start 171.45 57.15) (end 168.91 59.69) (width 0.25) (layer B.Cu) (net 3))
  (segment (start 171.45 51.435) (end 171.45 57.15) (width 0.25) (layer B.Cu) (net 3))
  (segment (start 156.845 77.891472) (end 156.845 78.74) (width 0.25) (layer B.Cu) (net 3))
  (segment (start 156.845 70.175998) (end 156.845 77.891472) (width 0.25) (layer B.Cu) (net 3))
  (segment (start 164.155998 62.865) (end 156.845 70.175998) (width 0.25) (layer B.Cu) (net 3))
  (segment (start 165.735 62.865) (end 164.155998 62.865) (width 0.25) (layer B.Cu) (net 3))
  (segment (start 168.91 59.69) (end 165.735 62.865) (width 0.25) (layer B.Cu) (net 3))
  (segment (start 173.99 57.79) (end 174.625 58.425) (width 0.25) (layer B.Cu) (net 4))
  (segment (start 173.99 51.435) (end 173.99 57.79) (width 0.25) (layer B.Cu) (net 4))
  (segment (start 175.324999 65.340001) (end 174.625 66.04) (width 0.25) (layer B.Cu) (net 4))
  (segment (start 175.650001 65.014999) (end 175.324999 65.340001) (width 0.25) (layer B.Cu) (net 4))
  (segment (start 175.650001 59.450001) (end 175.650001 65.014999) (width 0.25) (layer B.Cu) (net 4))
  (segment (start 174.625 58.425) (end 175.650001 59.450001) (width 0.25) (layer B.Cu) (net 4))
  (segment (start 149.505051 50.165) (end 150.495 50.165) (width 0.25) (layer B.Cu) (net 5))
  (segment (start 147.675 50.165) (end 149.505051 50.165) (width 0.25) (layer B.Cu) (net 5))
  (segment (start 144.145 53.695) (end 147.675 50.165) (width 0.25) (layer B.Cu) (net 5))
  (segment (start 144.145 55.245) (end 144.145 53.695) (width 0.25) (layer B.Cu) (net 5))
  (segment (start 150.495 50.165) (end 164.465 50.165) (width 0.25) (layer B.Cu) (net 5))
  (segment (start 164.465 50.165) (end 165.1 49.53) (width 0.25) (layer B.Cu) (net 5))
  (segment (start 165.735 50.165) (end 172.72 50.165) (width 0.25) (layer B.Cu) (net 5))
  (segment (start 165.1 49.53) (end 165.735 50.165) (width 0.25) (layer B.Cu) (net 5))
  (segment (start 171.385001 74.994999) (end 168.275 78.105) (width 0.25) (layer B.Cu) (net 6))
  (segment (start 172.085 74.295) (end 171.385001 74.994999) (width 0.25) (layer B.Cu) (net 6))
  (segment (start 165.1 81.28) (end 168.275 78.105) (width 0.25) (layer B.Cu) (net 6))
  (segment (start 159.385 81.28) (end 165.1 81.28) (width 0.25) (layer B.Cu) (net 6))
  (segment (start 173.110001 73.269999) (end 172.085 74.295) (width 0.25) (layer F.Cu) (net 6))
  (segment (start 174.625 60.325) (end 173.110001 61.839999) (width 0.25) (layer F.Cu) (net 6))
  (segment (start 173.110001 61.839999) (end 173.110001 73.269999) (width 0.25) (layer F.Cu) (net 6))
  (segment (start 174.62 67.945) (end 174.625 67.94) (width 0.25) (layer B.Cu) (net 7))
  (segment (start 168.275 67.945) (end 174.62 67.945) (width 0.25) (layer B.Cu) (net 7))
  (segment (start 174.625 68.929949) (end 174.625 67.94) (width 0.25) (layer B.Cu) (net 7))
  (segment (start 175.015001 69.31995) (end 174.625 68.929949) (width 0.25) (layer B.Cu) (net 7))
  (segment (start 175.015001 81.767001) (end 175.015001 69.31995) (width 0.25) (layer B.Cu) (net 7))
  (segment (start 172.962002 83.82) (end 175.015001 81.767001) (width 0.25) (layer B.Cu) (net 7))
  (segment (start 156.845 83.82) (end 172.962002 83.82) (width 0.25) (layer B.Cu) (net 7))
  (segment (start 173.99 74.3) (end 173.99 79.375) (width 0.25) (layer B.Cu) (net 8))
  (segment (start 172.085 72.395) (end 173.99 74.3) (width 0.25) (layer B.Cu) (net 8))
  (segment (start 171.385001 71.695001) (end 172.085 72.395) (width 0.25) (layer F.Cu) (net 8))
  (segment (start 170.507999 71.695001) (end 171.385001 71.695001) (width 0.25) (layer F.Cu) (net 8))
  (segment (start 157.63001 58.817012) (end 170.507999 71.695001) (width 0.25) (layer F.Cu) (net 8))
  (segment (start 157.63001 51.03001) (end 157.63001 58.817012) (width 0.25) (layer F.Cu) (net 8))
  (segment (start 156.13 49.53) (end 157.63001 51.03001) (width 0.25) (layer F.Cu) (net 8))
  (segment (start 167.01 53.9) (end 167.01 59.69) (width 0.25) (layer F.Cu) (net 9))
  (segment (start 165.18 52.07) (end 167.01 53.9) (width 0.25) (layer F.Cu) (net 9))
  (segment (start 143.82 66.92) (end 143.82 91.5) (width 0.25) (layer F.Cu) (net 11))
  (segment (start 156.13 54.61) (end 143.82 66.92) (width 0.25) (layer F.Cu) (net 11))

  (zone (net 0) (net_name "") (layer F.SilkS) (tstamp 0) (hatch edge 0.508)
    (connect_pads (clearance 0.508))
    (min_thickness 0.254)
    (fill yes (arc_segments 32) (thermal_gap 0.508) (thermal_bridge_width 0.508))
    (polygon
      (pts
        (xy 82.55 31.75) (xy 177.8 31.75) (xy 177.8 114.3) (xy 82.55 114.3)
      )
    )
    (filled_polygon
      (pts
        (xy 177.673 114.173) (xy 82.677 114.173) (xy 82.677 31.877) (xy 177.673 31.877)
      )
    )
  )
  (zone (net 0) (net_name "") (layer B.Cu) (tstamp 0) (hatch edge 0.508)
    (connect_pads (clearance 0.508))
    (min_thickness 0.254)
    (fill yes (arc_segments 32) (thermal_gap 0.508) (thermal_bridge_width 0.508))
    (polygon
      (pts
        (xy 82.55 31.75) (xy 177.8 31.75) (xy 177.8 114.3) (xy 82.55 114.3)
      )
    )
    (filled_polygon
      (pts
        (xy 177.673 114.173) (xy 82.677 114.173) (xy 82.677 90.2) (xy 86.281928 90.2) (xy 86.281928 92.8)
        (xy 86.294188 92.924482) (xy 86.330498 93.04418) (xy 86.389463 93.154494) (xy 86.468815 93.251185) (xy 86.565506 93.330537)
        (xy 86.67582 93.389502) (xy 86.795518 93.425812) (xy 86.92 93.438072) (xy 89.52 93.438072) (xy 89.644482 93.425812)
        (xy 89.76418 93.389502) (xy 89.874494 93.330537) (xy 89.971185 93.251185) (xy 90.050537 93.154494) (xy 90.109502 93.04418)
        (xy 90.145812 92.924482) (xy 90.158072 92.8) (xy 90.158072 91.250324) (xy 97.585 91.250324) (xy 97.585 91.749676)
        (xy 97.682418 92.239432) (xy 97.873512 92.700773) (xy 98.150937 93.115968) (xy 98.504032 93.469063) (xy 98.919227 93.746488)
        (xy 99.380568 93.937582) (xy 99.870324 94.035) (xy 100.369676 94.035) (xy 100.859432 93.937582) (xy 101.320773 93.746488)
        (xy 101.735968 93.469063) (xy 102.089063 93.115968) (xy 102.366488 92.700773) (xy 102.557582 92.239432) (xy 102.655 91.749676)
        (xy 102.655 91.250324) (xy 129.385 91.250324) (xy 129.385 91.749676) (xy 129.482418 92.239432) (xy 129.673512 92.700773)
        (xy 129.950937 93.115968) (xy 130.304032 93.469063) (xy 130.719227 93.746488) (xy 131.180568 93.937582) (xy 131.670324 94.035)
        (xy 132.169676 94.035) (xy 132.659432 93.937582) (xy 133.120773 93.746488) (xy 133.535968 93.469063) (xy 133.889063 93.115968)
        (xy 134.166488 92.700773) (xy 134.357582 92.239432) (xy 134.455 91.749676) (xy 134.455 91.309419) (xy 141.885 91.309419)
        (xy 141.885 91.690581) (xy 141.959361 92.064419) (xy 142.105225 92.416566) (xy 142.316987 92.733491) (xy 142.586509 93.003013)
        (xy 142.903434 93.214775) (xy 143.255581 93.360639) (xy 143.629419 93.435) (xy 144.010581 93.435) (xy 144.384419 93.360639)
        (xy 144.736566 93.214775) (xy 145.053491 93.003013) (xy 145.323013 92.733491) (xy 145.534775 92.416566) (xy 145.680639 92.064419)
        (xy 145.755 91.690581) (xy 145.755 91.309419) (xy 145.680639 90.935581) (xy 145.534775 90.583434) (xy 145.323013 90.266509)
        (xy 145.053491 89.996987) (xy 144.736566 89.785225) (xy 144.384419 89.639361) (xy 144.010581 89.565) (xy 143.629419 89.565)
        (xy 143.255581 89.639361) (xy 142.903434 89.785225) (xy 142.586509 89.996987) (xy 142.316987 90.266509) (xy 142.105225 90.583434)
        (xy 141.959361 90.935581) (xy 141.885 91.309419) (xy 134.455 91.309419) (xy 134.455 91.250324) (xy 134.357582 90.760568)
        (xy 134.166488 90.299227) (xy 133.889063 89.884032) (xy 133.535968 89.530937) (xy 133.120773 89.253512) (xy 132.659432 89.062418)
        (xy 132.169676 88.965) (xy 131.670324 88.965) (xy 131.180568 89.062418) (xy 130.719227 89.253512) (xy 130.304032 89.530937)
        (xy 129.950937 89.884032) (xy 129.673512 90.299227) (xy 129.482418 90.760568) (xy 129.385 91.250324) (xy 102.655 91.250324)
        (xy 102.557582 90.760568) (xy 102.366488 90.299227) (xy 102.089063 89.884032) (xy 101.735968 89.530937) (xy 101.320773 89.253512)
        (xy 100.859432 89.062418) (xy 100.369676 88.965) (xy 99.870324 88.965) (xy 99.380568 89.062418) (xy 98.919227 89.253512)
        (xy 98.504032 89.530937) (xy 98.150937 89.884032) (xy 97.873512 90.299227) (xy 97.682418 90.760568) (xy 97.585 91.250324)
        (xy 90.158072 91.250324) (xy 90.158072 90.2) (xy 90.145812 90.075518) (xy 90.109502 89.95582) (xy 90.050537 89.845506)
        (xy 89.971185 89.748815) (xy 89.874494 89.669463) (xy 89.76418 89.610498) (xy 89.644482 89.574188) (xy 89.52 89.561928)
        (xy 86.92 89.561928) (xy 86.795518 89.574188) (xy 86.67582 89.610498) (xy 86.565506 89.669463) (xy 86.468815 89.748815)
        (xy 86.389463 89.845506) (xy 86.330498 89.95582) (xy 86.294188 90.075518) (xy 86.281928 90.2) (xy 82.677 90.2)
        (xy 82.677 83.559336) (xy 155.61 83.559336) (xy 155.61 84.080665) (xy 155.62787 84.262102) (xy 155.698489 84.494901)
        (xy 155.813168 84.709449) (xy 155.967499 84.897502) (xy 156.155552 85.051833) (xy 156.3701 85.166511) (xy 156.602899 85.23713)
        (xy 156.845 85.260975) (xy 157.087102 85.23713) (xy 157.319901 85.166511) (xy 157.534449 85.051833) (xy 157.722502 84.897502)
        (xy 157.876833 84.709449) (xy 157.991511 84.4949) (xy 158.06213 84.262101) (xy 158.08 84.080664) (xy 158.08 83.559335)
        (xy 158.06213 83.377898) (xy 157.991511 83.145099) (xy 157.876833 82.930551) (xy 157.722502 82.742498) (xy 157.534448 82.588167)
        (xy 157.3199 82.473489) (xy 157.087101 82.40287) (xy 156.845 82.379025) (xy 156.602898 82.40287) (xy 156.370099 82.473489)
        (xy 156.155551 82.588167) (xy 155.967498 82.742498) (xy 155.813167 82.930552) (xy 155.698489 83.1451) (xy 155.62787 83.377899)
        (xy 155.61 83.559336) (xy 82.677 83.559336) (xy 82.677 81.28) (xy 158.144025 81.28) (xy 158.16787 81.522102)
        (xy 158.238489 81.754901) (xy 158.353167 81.969449) (xy 158.507498 82.157502) (xy 158.695551 82.311833) (xy 158.910099 82.426511)
        (xy 159.142898 82.49713) (xy 159.324335 82.515) (xy 159.445665 82.515) (xy 159.627102 82.49713) (xy 159.859901 82.426511)
        (xy 160.074449 82.311833) (xy 160.262502 82.157502) (xy 160.416833 81.969449) (xy 160.531511 81.754901) (xy 160.60213 81.522102)
        (xy 160.625975 81.28) (xy 160.625483 81.275) (xy 172.648541 81.275) (xy 172.674317 81.536706) (xy 172.750653 81.788354)
        (xy 172.874618 82.020275) (xy 173.041445 82.223555) (xy 173.244725 82.390382) (xy 173.476646 82.514347) (xy 173.728294 82.590683)
        (xy 173.924421 82.61) (xy 174.055579 82.61) (xy 174.251706 82.590683) (xy 174.503354 82.514347) (xy 174.735275 82.390382)
        (xy 174.938555 82.223555) (xy 175.105382 82.020275) (xy 175.229347 81.788354) (xy 175.305683 81.536706) (xy 175.331459 81.275)
        (xy 175.305683 81.013294) (xy 175.229347 80.761646) (xy 175.105382 80.529725) (xy 174.938555 80.326445) (xy 174.93195 80.321025)
        (xy 175.026962 80.226013) (xy 175.173061 80.007359) (xy 175.273696 79.764405) (xy 175.325 79.506486) (xy 175.325 79.243514)
        (xy 175.273696 78.985595) (xy 175.173061 78.742641) (xy 175.026962 78.523987) (xy 174.841013 78.338038) (xy 174.622359 78.191939)
        (xy 174.379405 78.091304) (xy 174.121486 78.04) (xy 173.858514 78.04) (xy 173.600595 78.091304) (xy 173.357641 78.191939)
        (xy 173.138987 78.338038) (xy 172.953038 78.523987) (xy 172.806939 78.742641) (xy 172.706304 78.985595) (xy 172.655 79.243514)
        (xy 172.655 79.506486) (xy 172.706304 79.764405) (xy 172.806939 80.007359) (xy 172.953038 80.226013) (xy 173.04805 80.321025)
        (xy 173.041445 80.326445) (xy 172.874618 80.529725) (xy 172.750653 80.761646) (xy 172.674317 81.013294) (xy 172.648541 81.275)
        (xy 160.625483 81.275) (xy 160.60213 81.037898) (xy 160.531511 80.805099) (xy 160.416833 80.590551) (xy 160.262502 80.402498)
        (xy 160.074449 80.248167) (xy 159.859901 80.133489) (xy 159.627102 80.06287) (xy 159.445665 80.045) (xy 159.324335 80.045)
        (xy 159.142898 80.06287) (xy 158.910099 80.133489) (xy 158.695551 80.248167) (xy 158.507498 80.402498) (xy 158.353167 80.590551)
        (xy 158.238489 80.805099) (xy 158.16787 81.037898) (xy 158.144025 81.28) (xy 82.677 81.28) (xy 82.677 78.74)
        (xy 155.604025 78.74) (xy 155.62787 78.982102) (xy 155.698489 79.214901) (xy 155.813167 79.429449) (xy 155.967498 79.617502)
        (xy 156.155551 79.771833) (xy 156.370099 79.886511) (xy 156.602898 79.95713) (xy 156.784335 79.975) (xy 156.905665 79.975)
        (xy 157.087102 79.95713) (xy 157.319901 79.886511) (xy 157.534449 79.771833) (xy 157.722502 79.617502) (xy 157.876833 79.429449)
        (xy 157.991511 79.214901) (xy 158.06213 78.982102) (xy 158.085975 78.74) (xy 158.06213 78.497898) (xy 157.991511 78.265099)
        (xy 157.905937 78.105) (xy 165.033541 78.105) (xy 165.059317 78.366706) (xy 165.135653 78.618354) (xy 165.259618 78.850275)
        (xy 165.426445 79.053555) (xy 165.629725 79.220382) (xy 165.861646 79.344347) (xy 166.113294 79.420683) (xy 166.309421 79.44)
        (xy 166.440579 79.44) (xy 166.636706 79.420683) (xy 166.888354 79.344347) (xy 167.120275 79.220382) (xy 167.323555 79.053555)
        (xy 167.328975 79.04695) (xy 167.423987 79.141962) (xy 167.642641 79.288061) (xy 167.885595 79.388696) (xy 168.143514 79.44)
        (xy 168.406486 79.44) (xy 168.664405 79.388696) (xy 168.907359 79.288061) (xy 169.126013 79.141962) (xy 169.311962 78.956013)
        (xy 169.458061 78.737359) (xy 169.558696 78.494405) (xy 169.61 78.236486) (xy 169.61 77.973514) (xy 169.558696 77.715595)
        (xy 169.458061 77.472641) (xy 169.311962 77.253987) (xy 169.126013 77.068038) (xy 168.907359 76.921939) (xy 168.664405 76.821304)
        (xy 168.406486 76.77) (xy 168.143514 76.77) (xy 167.885595 76.821304) (xy 167.642641 76.921939) (xy 167.423987 77.068038)
        (xy 167.328975 77.16305) (xy 167.323555 77.156445) (xy 167.120275 76.989618) (xy 166.888354 76.865653) (xy 166.636706 76.789317)
        (xy 166.440579 76.77) (xy 166.309421 76.77) (xy 166.113294 76.789317) (xy 165.861646 76.865653) (xy 165.629725 76.989618)
        (xy 165.426445 77.156445) (xy 165.259618 77.359725) (xy 165.135653 77.591646) (xy 165.059317 77.843294) (xy 165.033541 78.105)
        (xy 157.905937 78.105) (xy 157.876833 78.050551) (xy 157.722502 77.862498) (xy 157.534449 77.708167) (xy 157.319901 77.593489)
        (xy 157.087102 77.52287) (xy 156.905665 77.505) (xy 156.784335 77.505) (xy 156.602898 77.52287) (xy 156.370099 77.593489)
        (xy 156.155551 77.708167) (xy 155.967498 77.862498) (xy 155.813167 78.050551) (xy 155.698489 78.265099) (xy 155.62787 78.497898)
        (xy 155.604025 78.74) (xy 82.677 78.74) (xy 82.677 72.395) (xy 170.743541 72.395) (xy 170.769317 72.656706)
        (xy 170.845653 72.908354) (xy 170.969618 73.140275) (xy 171.136445 73.343555) (xy 171.14305 73.348975) (xy 171.048038 73.443987)
        (xy 170.901939 73.662641) (xy 170.801304 73.905595) (xy 170.75 74.163514) (xy 170.75 74.426486) (xy 170.801304 74.684405)
        (xy 170.901939 74.927359) (xy 171.048038 75.146013) (xy 171.233987 75.331962) (xy 171.452641 75.478061) (xy 171.695595 75.578696)
        (xy 171.953514 75.63) (xy 172.216486 75.63) (xy 172.474405 75.578696) (xy 172.717359 75.478061) (xy 172.936013 75.331962)
        (xy 173.121962 75.146013) (xy 173.268061 74.927359) (xy 173.368696 74.684405) (xy 173.42 74.426486) (xy 173.42 74.163514)
        (xy 173.368696 73.905595) (xy 173.268061 73.662641) (xy 173.121962 73.443987) (xy 173.02695 73.348975) (xy 173.033555 73.343555)
        (xy 173.200382 73.140275) (xy 173.324347 72.908354) (xy 173.400683 72.656706) (xy 173.426459 72.395) (xy 173.400683 72.133294)
        (xy 173.324347 71.881646) (xy 173.200382 71.649725) (xy 173.033555 71.446445) (xy 172.830275 71.279618) (xy 172.598354 71.155653)
        (xy 172.346706 71.079317) (xy 172.150579 71.06) (xy 172.019421 71.06) (xy 171.823294 71.079317) (xy 171.571646 71.155653)
        (xy 171.339725 71.279618) (xy 171.136445 71.446445) (xy 170.969618 71.649725) (xy 170.845653 71.881646) (xy 170.769317 72.133294)
        (xy 170.743541 72.395) (xy 82.677 72.395) (xy 82.677 65.71) (xy 152.701928 65.71) (xy 152.701928 68.91)
        (xy 152.714188 69.034482) (xy 152.750498 69.15418) (xy 152.809463 69.264494) (xy 152.888815 69.361185) (xy 152.985506 69.440537)
        (xy 153.09582 69.499502) (xy 153.215518 69.535812) (xy 153.34 69.548072) (xy 156.54 69.548072) (xy 156.664482 69.535812)
        (xy 156.78418 69.499502) (xy 156.894494 69.440537) (xy 156.991185 69.361185) (xy 157.070537 69.264494) (xy 157.129502 69.15418)
        (xy 157.165812 69.034482) (xy 157.178072 68.91) (xy 157.178072 67.31) (xy 160.314186 67.31) (xy 160.357339 67.748137)
        (xy 160.485138 68.169436) (xy 160.692674 68.557707) (xy 160.97197 68.89803) (xy 161.312293 69.177326) (xy 161.700564 69.384862)
        (xy 162.121863 69.512661) (xy 162.450204 69.545) (xy 162.669796 69.545) (xy 162.998137 69.512661) (xy 163.419436 69.384862)
        (xy 163.807707 69.177326) (xy 164.14803 68.89803) (xy 164.427326 68.557707) (xy 164.634862 68.169436) (xy 164.762661 67.748137)
        (xy 164.805814 67.31) (xy 164.762661 66.871863) (xy 164.634862 66.450564) (xy 164.427326 66.062293) (xy 164.413134 66.045)
        (xy 166.933541 66.045) (xy 166.959317 66.306706) (xy 167.035653 66.558354) (xy 167.159618 66.790275) (xy 167.326445 66.993555)
        (xy 167.33305 66.998975) (xy 167.238038 67.093987) (xy 167.091939 67.312641) (xy 166.991304 67.555595) (xy 166.94 67.813514)
        (xy 166.94 68.076486) (xy 166.991304 68.334405) (xy 167.091939 68.577359) (xy 167.238038 68.796013) (xy 167.423987 68.981962)
        (xy 167.642641 69.128061) (xy 167.885595 69.228696) (xy 168.143514 69.28) (xy 168.406486 69.28) (xy 168.664405 69.228696)
        (xy 168.907359 69.128061) (xy 169.126013 68.981962) (xy 169.311962 68.796013) (xy 169.458061 68.577359) (xy 169.558696 68.334405)
        (xy 169.61 68.076486) (xy 169.61 67.94) (xy 173.283541 67.94) (xy 173.309317 68.201706) (xy 173.385653 68.453354)
        (xy 173.509618 68.685275) (xy 173.676445 68.888555) (xy 173.879725 69.055382) (xy 174.111646 69.179347) (xy 174.363294 69.255683)
        (xy 174.559421 69.275) (xy 174.690579 69.275) (xy 174.886706 69.255683) (xy 175.138354 69.179347) (xy 175.370275 69.055382)
        (xy 175.573555 68.888555) (xy 175.740382 68.685275) (xy 175.864347 68.453354) (xy 175.940683 68.201706) (xy 175.966459 67.94)
        (xy 175.940683 67.678294) (xy 175.864347 67.426646) (xy 175.740382 67.194725) (xy 175.573555 66.991445) (xy 175.56695 66.986025)
        (xy 175.661962 66.891013) (xy 175.808061 66.672359) (xy 175.908696 66.429405) (xy 175.96 66.171486) (xy 175.96 65.908514)
        (xy 175.908696 65.650595) (xy 175.808061 65.407641) (xy 175.661962 65.188987) (xy 175.476013 65.003038) (xy 175.257359 64.856939)
        (xy 175.014405 64.756304) (xy 174.756486 64.705) (xy 174.493514 64.705) (xy 174.235595 64.756304) (xy 173.992641 64.856939)
        (xy 173.773987 65.003038) (xy 173.588038 65.188987) (xy 173.441939 65.407641) (xy 173.341304 65.650595) (xy 173.29 65.908514)
        (xy 173.29 66.171486) (xy 173.341304 66.429405) (xy 173.441939 66.672359) (xy 173.588038 66.891013) (xy 173.68305 66.986025)
        (xy 173.676445 66.991445) (xy 173.509618 67.194725) (xy 173.385653 67.426646) (xy 173.309317 67.678294) (xy 173.283541 67.94)
        (xy 169.61 67.94) (xy 169.61 67.813514) (xy 169.558696 67.555595) (xy 169.458061 67.312641) (xy 169.311962 67.093987)
        (xy 169.21695 66.998975) (xy 169.223555 66.993555) (xy 169.390382 66.790275) (xy 169.514347 66.558354) (xy 169.590683 66.306706)
        (xy 169.616459 66.045) (xy 169.590683 65.783294) (xy 169.514347 65.531646) (xy 169.390382 65.299725) (xy 169.223555 65.096445)
        (xy 169.020275 64.929618) (xy 168.788354 64.805653) (xy 168.536706 64.729317) (xy 168.340579 64.71) (xy 168.209421 64.71)
        (xy 168.013294 64.729317) (xy 167.761646 64.805653) (xy 167.529725 64.929618) (xy 167.326445 65.096445) (xy 167.159618 65.299725)
        (xy 167.035653 65.531646) (xy 166.959317 65.783294) (xy 166.933541 66.045) (xy 164.413134 66.045) (xy 164.14803 65.72197)
        (xy 163.807707 65.442674) (xy 163.419436 65.235138) (xy 162.998137 65.107339) (xy 162.669796 65.075) (xy 162.450204 65.075)
        (xy 162.121863 65.107339) (xy 161.700564 65.235138) (xy 161.312293 65.442674) (xy 160.97197 65.72197) (xy 160.692674 66.062293)
        (xy 160.485138 66.450564) (xy 160.357339 66.871863) (xy 160.314186 67.31) (xy 157.178072 67.31) (xy 157.178072 65.71)
        (xy 157.165812 65.585518) (xy 157.129502 65.46582) (xy 157.070537 65.355506) (xy 156.991185 65.258815) (xy 156.894494 65.179463)
        (xy 156.78418 65.120498) (xy 156.664482 65.084188) (xy 156.54 65.071928) (xy 153.34 65.071928) (xy 153.215518 65.084188)
        (xy 153.09582 65.120498) (xy 152.985506 65.179463) (xy 152.888815 65.258815) (xy 152.809463 65.355506) (xy 152.750498 65.46582)
        (xy 152.714188 65.585518) (xy 152.701928 65.71) (xy 82.677 65.71) (xy 82.677 59.69) (xy 165.668541 59.69)
        (xy 165.694317 59.951706) (xy 165.770653 60.203354) (xy 165.894618 60.435275) (xy 166.061445 60.638555) (xy 166.264725 60.805382)
        (xy 166.496646 60.929347) (xy 166.748294 61.005683) (xy 166.944421 61.025) (xy 167.075579 61.025) (xy 167.271706 61.005683)
        (xy 167.523354 60.929347) (xy 167.755275 60.805382) (xy 167.958555 60.638555) (xy 167.963975 60.63195) (xy 168.058987 60.726962)
        (xy 168.277641 60.873061) (xy 168.520595 60.973696) (xy 168.778514 61.025) (xy 169.041486 61.025) (xy 169.299405 60.973696)
        (xy 169.542359 60.873061) (xy 169.761013 60.726962) (xy 169.946962 60.541013) (xy 170.093061 60.322359) (xy 170.193696 60.079405)
        (xy 170.245 59.821486) (xy 170.245 59.558514) (xy 170.193696 59.300595) (xy 170.093061 59.057641) (xy 169.946962 58.838987)
        (xy 169.761013 58.653038) (xy 169.542359 58.506939) (xy 169.344542 58.425) (xy 173.283541 58.425) (xy 173.309317 58.686706)
        (xy 173.385653 58.938354) (xy 173.509618 59.170275) (xy 173.676445 59.373555) (xy 173.68305 59.378975) (xy 173.588038 59.473987)
        (xy 173.441939 59.692641) (xy 173.341304 59.935595) (xy 173.29 60.193514) (xy 173.29 60.456486) (xy 173.341304 60.714405)
        (xy 173.441939 60.957359) (xy 173.588038 61.176013) (xy 173.773987 61.361962) (xy 173.992641 61.508061) (xy 174.235595 61.608696)
        (xy 174.493514 61.66) (xy 174.756486 61.66) (xy 175.014405 61.608696) (xy 175.257359 61.508061) (xy 175.476013 61.361962)
        (xy 175.661962 61.176013) (xy 175.808061 60.957359) (xy 175.908696 60.714405) (xy 175.96 60.456486) (xy 175.96 60.193514)
        (xy 175.908696 59.935595) (xy 175.808061 59.692641) (xy 175.661962 59.473987) (xy 175.56695 59.378975) (xy 175.573555 59.373555)
        (xy 175.740382 59.170275) (xy 175.864347 58.938354) (xy 175.940683 58.686706) (xy 175.966459 58.425) (xy 175.940683 58.163294)
        (xy 175.864347 57.911646) (xy 175.740382 57.679725) (xy 175.573555 57.476445) (xy 175.370275 57.309618) (xy 175.138354 57.185653)
        (xy 174.886706 57.109317) (xy 174.690579 57.09) (xy 174.559421 57.09) (xy 174.363294 57.109317) (xy 174.111646 57.185653)
        (xy 173.879725 57.309618) (xy 173.676445 57.476445) (xy 173.509618 57.679725) (xy 173.385653 57.911646) (xy 173.309317 58.163294)
        (xy 173.283541 58.425) (xy 169.344542 58.425) (xy 169.299405 58.406304) (xy 169.041486 58.355) (xy 168.778514 58.355)
        (xy 168.520595 58.406304) (xy 168.277641 58.506939) (xy 168.058987 58.653038) (xy 167.963975 58.74805) (xy 167.958555 58.741445)
        (xy 167.755275 58.574618) (xy 167.523354 58.450653) (xy 167.271706 58.374317) (xy 167.075579 58.355) (xy 166.944421 58.355)
        (xy 166.748294 58.374317) (xy 166.496646 58.450653) (xy 166.264725 58.574618) (xy 166.061445 58.741445) (xy 165.894618 58.944725)
        (xy 165.770653 59.176646) (xy 165.694317 59.428294) (xy 165.668541 59.69) (xy 82.677 59.69) (xy 82.677 55.054419)
        (xy 86.61 55.054419) (xy 86.61 55.435581) (xy 86.684361 55.809419) (xy 86.830225 56.161566) (xy 87.041987 56.478491)
        (xy 87.311509 56.748013) (xy 87.628434 56.959775) (xy 87.980581 57.105639) (xy 88.354419 57.18) (xy 88.735581 57.18)
        (xy 89.109419 57.105639) (xy 89.461566 56.959775) (xy 89.778491 56.748013) (xy 90.048013 56.478491) (xy 90.259775 56.161566)
        (xy 90.405639 55.809419) (xy 90.48 55.435581) (xy 90.48 55.054419) (xy 90.468246 54.995324) (xy 97.91 54.995324)
        (xy 97.91 55.494676) (xy 98.007418 55.984432) (xy 98.198512 56.445773) (xy 98.475937 56.860968) (xy 98.829032 57.214063)
        (xy 99.244227 57.491488) (xy 99.705568 57.682582) (xy 100.195324 57.78) (xy 100.694676 57.78) (xy 101.184432 57.682582)
        (xy 101.645773 57.491488) (xy 102.060968 57.214063) (xy 102.414063 56.860968) (xy 102.691488 56.445773) (xy 102.882582 55.984432)
        (xy 102.98 55.494676) (xy 102.98 54.995324) (xy 129.71 54.995324) (xy 129.71 55.494676) (xy 129.807418 55.984432)
        (xy 129.998512 56.445773) (xy 130.275937 56.860968) (xy 130.629032 57.214063) (xy 131.044227 57.491488) (xy 131.505568 57.682582)
        (xy 131.995324 57.78) (xy 132.494676 57.78) (xy 132.984432 57.682582) (xy 133.445773 57.491488) (xy 133.860968 57.214063)
        (xy 134.214063 56.860968) (xy 134.491488 56.445773) (xy 134.682582 55.984432) (xy 134.78 55.494676) (xy 134.78 54.995324)
        (xy 134.682582 54.505568) (xy 134.491488 54.044227) (xy 134.425187 53.945) (xy 142.206928 53.945) (xy 142.206928 56.545)
        (xy 142.219188 56.669482) (xy 142.255498 56.78918) (xy 142.314463 56.899494) (xy 142.393815 56.996185) (xy 142.490506 57.075537)
        (xy 142.60082 57.134502) (xy 142.720518 57.170812) (xy 142.845 57.183072) (xy 145.445 57.183072) (xy 145.569482 57.170812)
        (xy 145.68918 57.134502) (xy 145.799494 57.075537) (xy 145.896185 56.996185) (xy 145.975537 56.899494) (xy 146.034502 56.78918)
        (xy 146.070812 56.669482) (xy 146.083072 56.545) (xy 146.083072 53.945) (xy 146.070812 53.820518) (xy 146.034502 53.70082)
        (xy 145.975537 53.590506) (xy 145.896185 53.493815) (xy 145.799494 53.414463) (xy 145.68918 53.355498) (xy 145.569482 53.319188)
        (xy 145.445 53.306928) (xy 142.845 53.306928) (xy 142.720518 53.319188) (xy 142.60082 53.355498) (xy 142.490506 53.414463)
        (xy 142.393815 53.493815) (xy 142.314463 53.590506) (xy 142.255498 53.70082) (xy 142.219188 53.820518) (xy 142.206928 53.945)
        (xy 134.425187 53.945) (xy 134.214063 53.629032) (xy 133.860968 53.275937) (xy 133.445773 52.998512) (xy 132.984432 52.807418)
        (xy 132.494676 52.71) (xy 131.995324 52.71) (xy 131.505568 52.807418) (xy 131.044227 52.998512) (xy 130.629032 53.275937)
        (xy 130.275937 53.629032) (xy 129.998512 54.044227) (xy 129.807418 54.505568) (xy 129.71 54.995324) (xy 102.98 54.995324)
        (xy 102.882582 54.505568) (xy 102.691488 54.044227) (xy 102.414063 53.629032) (xy 102.060968 53.275937) (xy 101.645773 52.998512)
        (xy 101.184432 52.807418) (xy 100.694676 52.71) (xy 100.195324 52.71) (xy 99.705568 52.807418) (xy 99.244227 52.998512)
        (xy 98.829032 53.275937) (xy 98.475937 53.629032) (xy 98.198512 54.044227) (xy 98.007418 54.505568) (xy 97.91 54.995324)
        (xy 90.468246 54.995324) (xy 90.405639 54.680581) (xy 90.259775 54.328434) (xy 90.048013 54.011509) (xy 89.778491 53.741987)
        (xy 89.461566 53.530225) (xy 89.109419 53.384361) (xy 88.735581 53.31) (xy 88.354419 53.31) (xy 87.980581 53.384361)
        (xy 87.628434 53.530225) (xy 87.311509 53.741987) (xy 87.041987 54.011509) (xy 86.830225 54.328434) (xy 86.684361 54.680581)
        (xy 86.61 55.054419) (xy 82.677 55.054419) (xy 82.677 52.065) (xy 149.153541 52.065) (xy 149.179317 52.326706)
        (xy 149.255653 52.578354) (xy 149.379618 52.810275) (xy 149.546445 53.013555) (xy 149.749725 53.180382) (xy 149.981646 53.304347)
        (xy 150.233294 53.380683) (xy 150.429421 53.4) (xy 150.560579 53.4) (xy 150.756706 53.380683) (xy 151.008354 53.304347)
        (xy 151.240275 53.180382) (xy 151.443555 53.013555) (xy 151.610382 52.810275) (xy 151.734347 52.578354) (xy 151.810683 52.326706)
        (xy 151.836459 52.065) (xy 151.810683 51.803294) (xy 151.734347 51.551646) (xy 151.610382 51.319725) (xy 151.443555 51.116445)
        (xy 151.43695 51.111025) (xy 151.531962 51.016013) (xy 151.678061 50.797359) (xy 151.68318 50.785) (xy 170.161928 50.785)
        (xy 170.161928 52.085) (xy 170.174188 52.209482) (xy 170.210498 52.32918) (xy 170.269463 52.439494) (xy 170.348815 52.536185)
        (xy 170.445506 52.615537) (xy 170.55582 52.674502) (xy 170.675518 52.710812) (xy 170.8 52.723072) (xy 172.1 52.723072)
        (xy 172.224482 52.710812) (xy 172.34418 52.674502) (xy 172.454494 52.615537) (xy 172.551185 52.536185) (xy 172.630537 52.439494)
        (xy 172.689502 52.32918) (xy 172.725812 52.209482) (xy 172.738072 52.085) (xy 172.738072 51.727828) (xy 172.754381 51.809821)
        (xy 172.851247 52.043676) (xy 172.991875 52.25414) (xy 173.17086 52.433125) (xy 173.381324 52.573753) (xy 173.615179 52.670619)
        (xy 173.863439 52.72) (xy 174.116561 52.72) (xy 174.364821 52.670619) (xy 174.598676 52.573753) (xy 174.80914 52.433125)
        (xy 174.988125 52.25414) (xy 175.128753 52.043676) (xy 175.225619 51.809821) (xy 175.275 51.561561) (xy 175.275 51.308439)
        (xy 175.225619 51.060179) (xy 175.128753 50.826324) (xy 174.988125 50.61586) (xy 174.80914 50.436875) (xy 174.598676 50.296247)
        (xy 174.364821 50.199381) (xy 174.116561 50.15) (xy 174.005 50.15) (xy 174.005 50.038439) (xy 173.955619 49.790179)
        (xy 173.858753 49.556324) (xy 173.718125 49.34586) (xy 173.53914 49.166875) (xy 173.328676 49.026247) (xy 173.094821 48.929381)
        (xy 172.846561 48.88) (xy 172.593439 48.88) (xy 172.345179 48.929381) (xy 172.111324 49.026247) (xy 171.90086 49.166875)
        (xy 171.721875 49.34586) (xy 171.581247 49.556324) (xy 171.484381 49.790179) (xy 171.435 50.038439) (xy 171.435 50.146928)
        (xy 170.8 50.146928) (xy 170.675518 50.159188) (xy 170.55582 50.195498) (xy 170.445506 50.254463) (xy 170.348815 50.333815)
        (xy 170.269463 50.430506) (xy 170.210498 50.54082) (xy 170.174188 50.660518) (xy 170.161928 50.785) (xy 151.68318 50.785)
        (xy 151.778696 50.554405) (xy 151.83 50.296486) (xy 151.83 50.033514) (xy 151.778696 49.775595) (xy 151.678061 49.532641)
        (xy 151.531962 49.313987) (xy 151.346013 49.128038) (xy 151.127359 48.981939) (xy 150.884405 48.881304) (xy 150.626486 48.83)
        (xy 150.363514 48.83) (xy 150.105595 48.881304) (xy 149.862641 48.981939) (xy 149.643987 49.128038) (xy 149.458038 49.313987)
        (xy 149.311939 49.532641) (xy 149.211304 49.775595) (xy 149.16 50.033514) (xy 149.16 50.296486) (xy 149.211304 50.554405)
        (xy 149.311939 50.797359) (xy 149.458038 51.016013) (xy 149.55305 51.111025) (xy 149.546445 51.116445) (xy 149.379618 51.319725)
        (xy 149.255653 51.551646) (xy 149.179317 51.803294) (xy 149.153541 52.065) (xy 82.677 52.065) (xy 82.677 31.877)
        (xy 177.673 31.877)
      )
    )
  )
  (zone (net 0) (net_name "") (layer F.Cu) (tstamp 0) (hatch edge 0.508)
    (connect_pads (clearance 0.508))
    (min_thickness 0.254)
    (fill yes (arc_segments 32) (thermal_gap 0.508) (thermal_bridge_width 0.508))
    (polygon
      (pts
        (xy 82.55 31.75) (xy 177.8 31.75) (xy 177.8 114.3) (xy 82.55 114.3)
      )
    )
    (filled_polygon
      (pts
        (xy 177.673 114.173) (xy 82.677 114.173) (xy 82.677 90.2) (xy 86.281928 90.2) (xy 86.281928 92.8)
        (xy 86.294188 92.924482) (xy 86.330498 93.04418) (xy 86.389463 93.154494) (xy 86.468815 93.251185) (xy 86.565506 93.330537)
        (xy 86.67582 93.389502) (xy 86.795518 93.425812) (xy 86.92 93.438072) (xy 89.52 93.438072) (xy 89.644482 93.425812)
        (xy 89.76418 93.389502) (xy 89.874494 93.330537) (xy 89.971185 93.251185) (xy 90.050537 93.154494) (xy 90.109502 93.04418)
        (xy 90.145812 92.924482) (xy 90.158072 92.8) (xy 90.158072 91.250324) (xy 97.585 91.250324) (xy 97.585 91.749676)
        (xy 97.682418 92.239432) (xy 97.873512 92.700773) (xy 98.150937 93.115968) (xy 98.504032 93.469063) (xy 98.919227 93.746488)
        (xy 99.380568 93.937582) (xy 99.870324 94.035) (xy 100.369676 94.035) (xy 100.859432 93.937582) (xy 101.320773 93.746488)
        (xy 101.735968 93.469063) (xy 102.089063 93.115968) (xy 102.366488 92.700773) (xy 102.557582 92.239432) (xy 102.655 91.749676)
        (xy 102.655 91.250324) (xy 129.385 91.250324) (xy 129.385 91.749676) (xy 129.482418 92.239432) (xy 129.673512 92.700773)
        (xy 129.950937 93.115968) (xy 130.304032 93.469063) (xy 130.719227 93.746488) (xy 131.180568 93.937582) (xy 131.670324 94.035)
        (xy 132.169676 94.035) (xy 132.659432 93.937582) (xy 133.120773 93.746488) (xy 133.535968 93.469063) (xy 133.889063 93.115968)
        (xy 134.166488 92.700773) (xy 134.357582 92.239432) (xy 134.455 91.749676) (xy 134.455 91.309419) (xy 141.885 91.309419)
        (xy 141.885 91.690581) (xy 141.959361 92.064419) (xy 142.105225 92.416566) (xy 142.316987 92.733491) (xy 142.586509 93.003013)
        (xy 142.903434 93.214775) (xy 143.255581 93.360639) (xy 143.629419 93.435) (xy 144.010581 93.435) (xy 144.384419 93.360639)
        (xy 144.736566 93.214775) (xy 145.053491 93.003013) (xy 145.323013 92.733491) (xy 145.534775 92.416566) (xy 145.680639 92.064419)
        (xy 145.755 91.690581) (xy 145.755 91.309419) (xy 145.680639 90.935581) (xy 145.534775 90.583434) (xy 145.323013 90.266509)
        (xy 145.053491 89.996987) (xy 144.736566 89.785225) (xy 144.384419 89.639361) (xy 144.010581 89.565) (xy 143.629419 89.565)
        (xy 143.255581 89.639361) (xy 142.903434 89.785225) (xy 142.586509 89.996987) (xy 142.316987 90.266509) (xy 142.105225 90.583434)
        (xy 141.959361 90.935581) (xy 141.885 91.309419) (xy 134.455 91.309419) (xy 134.455 91.250324) (xy 134.357582 90.760568)
        (xy 134.166488 90.299227) (xy 133.889063 89.884032) (xy 133.535968 89.530937) (xy 133.120773 89.253512) (xy 132.659432 89.062418)
        (xy 132.169676 88.965) (xy 131.670324 88.965) (xy 131.180568 89.062418) (xy 130.719227 89.253512) (xy 130.304032 89.530937)
        (xy 129.950937 89.884032) (xy 129.673512 90.299227) (xy 129.482418 90.760568) (xy 129.385 91.250324) (xy 102.655 91.250324)
        (xy 102.557582 90.760568) (xy 102.366488 90.299227) (xy 102.089063 89.884032) (xy 101.735968 89.530937) (xy 101.320773 89.253512)
        (xy 100.859432 89.062418) (xy 100.369676 88.965) (xy 99.870324 88.965) (xy 99.380568 89.062418) (xy 98.919227 89.253512)
        (xy 98.504032 89.530937) (xy 98.150937 89.884032) (xy 97.873512 90.299227) (xy 97.682418 90.760568) (xy 97.585 91.250324)
        (xy 90.158072 91.250324) (xy 90.158072 90.2) (xy 90.145812 90.075518) (xy 90.109502 89.95582) (xy 90.050537 89.845506)
        (xy 89.971185 89.748815) (xy 89.874494 89.669463) (xy 89.76418 89.610498) (xy 89.644482 89.574188) (xy 89.52 89.561928)
        (xy 86.92 89.561928) (xy 86.795518 89.574188) (xy 86.67582 89.610498) (xy 86.565506 89.669463) (xy 86.468815 89.748815)
        (xy 86.389463 89.845506) (xy 86.330498 89.95582) (xy 86.294188 90.075518) (xy 86.281928 90.2) (xy 82.677 90.2)
        (xy 82.677 83.559336) (xy 155.61 83.559336) (xy 155.61 84.080665) (xy 155.62787 84.262102) (xy 155.698489 84.494901)
        (xy 155.813168 84.709449) (xy 155.967499 84.897502) (xy 156.155552 85.051833) (xy 156.3701 85.166511) (xy 156.602899 85.23713)
        (xy 156.845 85.260975) (xy 157.087102 85.23713) (xy 157.319901 85.166511) (xy 157.534449 85.051833) (xy 157.722502 84.897502)
        (xy 157.876833 84.709449) (xy 157.991511 84.4949) (xy 158.06213 84.262101) (xy 158.08 84.080664) (xy 158.08 83.559335)
        (xy 158.06213 83.377898) (xy 157.991511 83.145099) (xy 157.876833 82.930551) (xy 157.722502 82.742498) (xy 157.534448 82.588167)
        (xy 157.3199 82.473489) (xy 157.087101 82.40287) (xy 156.845 82.379025) (xy 156.602898 82.40287) (xy 156.370099 82.473489)
        (xy 156.155551 82.588167) (xy 155.967498 82.742498) (xy 155.813167 82.930552) (xy 155.698489 83.1451) (xy 155.62787 83.377899)
        (xy 155.61 83.559336) (xy 82.677 83.559336) (xy 82.677 81.28) (xy 158.144025 81.28) (xy 158.16787 81.522102)
        (xy 158.238489 81.754901) (xy 158.353167 81.969449) (xy 158.507498 82.157502) (xy 158.695551 82.311833) (xy 158.910099 82.426511)
        (xy 159.142898 82.49713) (xy 159.324335 82.515) (xy 159.445665 82.515) (xy 159.627102 82.49713) (xy 159.859901 82.426511)
        (xy 160.074449 82.311833) (xy 160.262502 82.157502) (xy 160.416833 81.969449) (xy 160.531511 81.754901) (xy 160.60213 81.522102)
        (xy 160.625975 81.28) (xy 160.625483 81.275) (xy 172.648541 81.275) (xy 172.674317 81.536706) (xy 172.750653 81.788354)
        (xy 172.874618 82.020275) (xy 173.041445 82.223555) (xy 173.244725 82.390382) (xy 173.476646 82.514347) (xy 173.728294 82.590683)
        (xy 173.924421 82.61) (xy 174.055579 82.61) (xy 174.251706 82.590683) (xy 174.503354 82.514347) (xy 174.735275 82.390382)
        (xy 174.938555 82.223555) (xy 175.105382 82.020275) (xy 175.229347 81.788354) (xy 175.305683 81.536706) (xy 175.331459 81.275)
        (xy 175.305683 81.013294) (xy 175.229347 80.761646) (xy 175.105382 80.529725) (xy 174.938555 80.326445) (xy 174.93195 80.321025)
        (xy 175.026962 80.226013) (xy 175.173061 80.007359) (xy 175.273696 79.764405) (xy 175.325 79.506486) (xy 175.325 79.243514)
        (xy 175.273696 78.985595) (xy 175.173061 78.742641) (xy 175.026962 78.523987) (xy 174.841013 78.338038) (xy 174.622359 78.191939)
        (xy 174.379405 78.091304) (xy 174.121486 78.04) (xy 173.858514 78.04) (xy 173.600595 78.091304) (xy 173.357641 78.191939)
        (xy 173.138987 78.338038) (xy 172.953038 78.523987) (xy 172.806939 78.742641) (xy 172.706304 78.985595) (xy 172.655 79.243514)
        (xy 172.655 79.506486) (xy 172.706304 79.764405) (xy 172.806939 80.007359) (xy 172.953038 80.226013) (xy 173.04805 80.321025)
        (xy 173.041445 80.326445) (xy 172.874618 80.529725) (xy 172.750653 80.761646) (xy 172.674317 81.013294) (xy 172.648541 81.275)
        (xy 160.625483 81.275) (xy 160.60213 81.037898) (xy 160.531511 80.805099) (xy 160.416833 80.590551) (xy 160.262502 80.402498)
        (xy 160.074449 80.248167) (xy 159.859901 80.133489) (xy 159.627102 80.06287) (xy 159.445665 80.045) (xy 159.324335 80.045)
        (xy 159.142898 80.06287) (xy 158.910099 80.133489) (xy 158.695551 80.248167) (xy 158.507498 80.402498) (xy 158.353167 80.590551)
        (xy 158.238489 80.805099) (xy 158.16787 81.037898) (xy 158.144025 81.28) (xy 82.677 81.28) (xy 82.677 78.74)
        (xy 155.604025 78.74) (xy 155.62787 78.982102) (xy 155.698489 79.214901) (xy 155.813167 79.429449) (xy 155.967498 79.617502)
        (xy 156.155551 79.771833) (xy 156.370099 79.886511) (xy 156.602898 79.95713) (xy 156.784335 79.975) (xy 156.905665 79.975)
        (xy 157.087102 79.95713) (xy 157.319901 79.886511) (xy 157.534449 79.771833) (xy 157.722502 79.617502) (xy 157.876833 79.429449)
        (xy 157.991511 79.214901) (xy 158.06213 78.982102) (xy 158.085975 78.74) (xy 158.06213 78.497898) (xy 157.991511 78.265099)
        (xy 157.905937 78.105) (xy 165.033541 78.105) (xy 165.059317 78.366706) (xy 165.135653 78.618354) (xy 165.259618 78.850275)
        (xy 165.426445 79.053555) (xy 165.629725 79.220382) (xy 165.861646 79.344347) (xy 166.113294 79.420683) (xy 166.309421 79.44)
        (xy 166.440579 79.44) (xy 166.636706 79.420683) (xy 166.888354 79.344347) (xy 167.120275 79.220382) (xy 167.323555 79.053555)
        (xy 167.328975 79.04695) (xy 167.423987 79.141962) (xy 167.642641 79.288061) (xy 167.885595 79.388696) (xy 168.143514 79.44)
        (xy 168.406486 79.44) (xy 168.664405 79.388696) (xy 168.907359 79.288061) (xy 169.126013 79.141962) (xy 169.311962 78.956013)
        (xy 169.458061 78.737359) (xy 169.558696 78.494405) (xy 169.61 78.236486) (xy 169.61 77.973514) (xy 169.558696 77.715595)
        (xy 169.458061 77.472641) (xy 169.311962 77.253987) (xy 169.126013 77.068038) (xy 168.907359 76.921939) (xy 168.664405 76.821304)
        (xy 168.406486 76.77) (xy 168.143514 76.77) (xy 167.885595 76.821304) (xy 167.642641 76.921939) (xy 167.423987 77.068038)
        (xy 167.328975 77.16305) (xy 167.323555 77.156445) (xy 167.120275 76.989618) (xy 166.888354 76.865653) (xy 166.636706 76.789317)
        (xy 166.440579 76.77) (xy 166.309421 76.77) (xy 166.113294 76.789317) (xy 165.861646 76.865653) (xy 165.629725 76.989618)
        (xy 165.426445 77.156445) (xy 165.259618 77.359725) (xy 165.135653 77.591646) (xy 165.059317 77.843294) (xy 165.033541 78.105)
        (xy 157.905937 78.105) (xy 157.876833 78.050551) (xy 157.722502 77.862498) (xy 157.534449 77.708167) (xy 157.319901 77.593489)
        (xy 157.087102 77.52287) (xy 156.905665 77.505) (xy 156.784335 77.505) (xy 156.602898 77.52287) (xy 156.370099 77.593489)
        (xy 156.155551 77.708167) (xy 155.967498 77.862498) (xy 155.813167 78.050551) (xy 155.698489 78.265099) (xy 155.62787 78.497898)
        (xy 155.604025 78.74) (xy 82.677 78.74) (xy 82.677 72.395) (xy 170.743541 72.395) (xy 170.769317 72.656706)
        (xy 170.845653 72.908354) (xy 170.969618 73.140275) (xy 171.136445 73.343555) (xy 171.14305 73.348975) (xy 171.048038 73.443987)
        (xy 170.901939 73.662641) (xy 170.801304 73.905595) (xy 170.75 74.163514) (xy 170.75 74.426486) (xy 170.801304 74.684405)
        (xy 170.901939 74.927359) (xy 171.048038 75.146013) (xy 171.233987 75.331962) (xy 171.452641 75.478061) (xy 171.695595 75.578696)
        (xy 171.953514 75.63) (xy 172.216486 75.63) (xy 172.474405 75.578696) (xy 172.717359 75.478061) (xy 172.936013 75.331962)
        (xy 173.121962 75.146013) (xy 173.268061 74.927359) (xy 173.368696 74.684405) (xy 173.42 74.426486) (xy 173.42 74.163514)
        (xy 173.368696 73.905595) (xy 173.268061 73.662641) (xy 173.121962 73.443987) (xy 173.02695 73.348975) (xy 173.033555 73.343555)
        (xy 173.200382 73.140275) (xy 173.324347 72.908354) (xy 173.400683 72.656706) (xy 173.426459 72.395) (xy 173.400683 72.133294)
        (xy 173.324347 71.881646) (xy 173.200382 71.649725) (xy 173.033555 71.446445) (xy 172.830275 71.279618) (xy 172.598354 71.155653)
        (xy 172.346706 71.079317) (xy 172.150579 71.06) (xy 172.019421 71.06) (xy 171.823294 71.079317) (xy 171.571646 71.155653)
        (xy 171.339725 71.279618) (xy 171.136445 71.446445) (xy 170.969618 71.649725) (xy 170.845653 71.881646) (xy 170.769317 72.133294)
        (xy 170.743541 72.395) (xy 82.677 72.395) (xy 82.677 65.71) (xy 152.701928 65.71) (xy 152.701928 68.91)
        (xy 152.714188 69.034482) (xy 152.750498 69.15418) (xy 152.809463 69.264494) (xy 152.888815 69.361185) (xy 152.985506 69.440537)
        (xy 153.09582 69.499502) (xy 153.215518 69.535812) (xy 153.34 69.548072) (xy 156.54 69.548072) (xy 156.664482 69.535812)
        (xy 156.78418 69.499502) (xy 156.894494 69.440537) (xy 156.991185 69.361185) (xy 157.070537 69.264494) (xy 157.129502 69.15418)
        (xy 157.165812 69.034482) (xy 157.178072 68.91) (xy 157.178072 67.31) (xy 160.314186 67.31) (xy 160.357339 67.748137)
        (xy 160.485138 68.169436) (xy 160.692674 68.557707) (xy 160.97197 68.89803) (xy 161.312293 69.177326) (xy 161.700564 69.384862)
        (xy 162.121863 69.512661) (xy 162.450204 69.545) (xy 162.669796 69.545) (xy 162.998137 69.512661) (xy 163.419436 69.384862)
        (xy 163.807707 69.177326) (xy 164.14803 68.89803) (xy 164.427326 68.557707) (xy 164.634862 68.169436) (xy 164.762661 67.748137)
        (xy 164.805814 67.31) (xy 164.762661 66.871863) (xy 164.634862 66.450564) (xy 164.427326 66.062293) (xy 164.413134 66.045)
        (xy 166.933541 66.045) (xy 166.959317 66.306706) (xy 167.035653 66.558354) (xy 167.159618 66.790275) (xy 167.326445 66.993555)
        (xy 167.33305 66.998975) (xy 167.238038 67.093987) (xy 167.091939 67.312641) (xy 166.991304 67.555595) (xy 166.94 67.813514)
        (xy 166.94 68.076486) (xy 166.991304 68.334405) (xy 167.091939 68.577359) (xy 167.238038 68.796013) (xy 167.423987 68.981962)
        (xy 167.642641 69.128061) (xy 167.885595 69.228696) (xy 168.143514 69.28) (xy 168.406486 69.28) (xy 168.664405 69.228696)
        (xy 168.907359 69.128061) (xy 169.126013 68.981962) (xy 169.311962 68.796013) (xy 169.458061 68.577359) (xy 169.558696 68.334405)
        (xy 169.61 68.076486) (xy 169.61 67.94) (xy 173.283541 67.94) (xy 173.309317 68.201706) (xy 173.385653 68.453354)
        (xy 173.509618 68.685275) (xy 173.676445 68.888555) (xy 173.879725 69.055382) (xy 174.111646 69.179347) (xy 174.363294 69.255683)
        (xy 174.559421 69.275) (xy 174.690579 69.275) (xy 174.886706 69.255683) (xy 175.138354 69.179347) (xy 175.370275 69.055382)
        (xy 175.573555 68.888555) (xy 175.740382 68.685275) (xy 175.864347 68.453354) (xy 175.940683 68.201706) (xy 175.966459 67.94)
        (xy 175.940683 67.678294) (xy 175.864347 67.426646) (xy 175.740382 67.194725) (xy 175.573555 66.991445) (xy 175.56695 66.986025)
        (xy 175.661962 66.891013) (xy 175.808061 66.672359) (xy 175.908696 66.429405) (xy 175.96 66.171486) (xy 175.96 65.908514)
        (xy 175.908696 65.650595) (xy 175.808061 65.407641) (xy 175.661962 65.188987) (xy 175.476013 65.003038) (xy 175.257359 64.856939)
        (xy 175.014405 64.756304) (xy 174.756486 64.705) (xy 174.493514 64.705) (xy 174.235595 64.756304) (xy 173.992641 64.856939)
        (xy 173.773987 65.003038) (xy 173.588038 65.188987) (xy 173.441939 65.407641) (xy 173.341304 65.650595) (xy 173.29 65.908514)
        (xy 173.29 66.171486) (xy 173.341304 66.429405) (xy 173.441939 66.672359) (xy 173.588038 66.891013) (xy 173.68305 66.986025)
        (xy 173.676445 66.991445) (xy 173.509618 67.194725) (xy 173.385653 67.426646) (xy 173.309317 67.678294) (xy 173.283541 67.94)
        (xy 169.61 67.94) (xy 169.61 67.813514) (xy 169.558696 67.555595) (xy 169.458061 67.312641) (xy 169.311962 67.093987)
        (xy 169.21695 66.998975) (xy 169.223555 66.993555) (xy 169.390382 66.790275) (xy 169.514347 66.558354) (xy 169.590683 66.306706)
        (xy 169.616459 66.045) (xy 169.590683 65.783294) (xy 169.514347 65.531646) (xy 169.390382 65.299725) (xy 169.223555 65.096445)
        (xy 169.020275 64.929618) (xy 168.788354 64.805653) (xy 168.536706 64.729317) (xy 168.340579 64.71) (xy 168.209421 64.71)
        (xy 168.013294 64.729317) (xy 167.761646 64.805653) (xy 167.529725 64.929618) (xy 167.326445 65.096445) (xy 167.159618 65.299725)
        (xy 167.035653 65.531646) (xy 166.959317 65.783294) (xy 166.933541 66.045) (xy 164.413134 66.045) (xy 164.14803 65.72197)
        (xy 163.807707 65.442674) (xy 163.419436 65.235138) (xy 162.998137 65.107339) (xy 162.669796 65.075) (xy 162.450204 65.075)
        (xy 162.121863 65.107339) (xy 161.700564 65.235138) (xy 161.312293 65.442674) (xy 160.97197 65.72197) (xy 160.692674 66.062293)
        (xy 160.485138 66.450564) (xy 160.357339 66.871863) (xy 160.314186 67.31) (xy 157.178072 67.31) (xy 157.178072 65.71)
        (xy 157.165812 65.585518) (xy 157.129502 65.46582) (xy 157.070537 65.355506) (xy 156.991185 65.258815) (xy 156.894494 65.179463)
        (xy 156.78418 65.120498) (xy 156.664482 65.084188) (xy 156.54 65.071928) (xy 153.34 65.071928) (xy 153.215518 65.084188)
        (xy 153.09582 65.120498) (xy 152.985506 65.179463) (xy 152.888815 65.258815) (xy 152.809463 65.355506) (xy 152.750498 65.46582)
        (xy 152.714188 65.585518) (xy 152.701928 65.71) (xy 82.677 65.71) (xy 82.677 59.69) (xy 165.668541 59.69)
        (xy 165.694317 59.951706) (xy 165.770653 60.203354) (xy 165.894618 60.435275) (xy 166.061445 60.638555) (xy 166.264725 60.805382)
        (xy 166.496646 60.929347) (xy 166.748294 61.005683) (xy 166.944421 61.025) (xy 167.075579 61.025) (xy 167.271706 61.005683)
        (xy 167.523354 60.929347) (xy 167.755275 60.805382) (xy 167.958555 60.638555) (xy 167.963975 60.63195) (xy 168.058987 60.726962)
        (xy 168.277641 60.873061) (xy 168.520595 60.973696) (xy 168.778514 61.025) (xy 169.041486 61.025) (xy 169.299405 60.973696)
        (xy 169.542359 60.873061) (xy 169.761013 60.726962) (xy 169.946962 60.541013) (xy 170.093061 60.322359) (xy 170.193696 60.079405)
        (xy 170.245 59.821486) (xy 170.245 59.558514) (xy 170.193696 59.300595) (xy 170.093061 59.057641) (xy 169.946962 58.838987)
        (xy 169.761013 58.653038) (xy 169.542359 58.506939) (xy 169.344542 58.425) (xy 173.283541 58.425) (xy 173.309317 58.686706)
        (xy 173.385653 58.938354) (xy 173.509618 59.170275) (xy 173.676445 59.373555) (xy 173.68305 59.378975) (xy 173.588038 59.473987)
        (xy 173.441939 59.692641) (xy 173.341304 59.935595) (xy 173.29 60.193514) (xy 173.29 60.456486) (xy 173.341304 60.714405)
        (xy 173.441939 60.957359) (xy 173.588038 61.176013) (xy 173.773987 61.361962) (xy 173.992641 61.508061) (xy 174.235595 61.608696)
        (xy 174.493514 61.66) (xy 174.756486 61.66) (xy 175.014405 61.608696) (xy 175.257359 61.508061) (xy 175.476013 61.361962)
        (xy 175.661962 61.176013) (xy 175.808061 60.957359) (xy 175.908696 60.714405) (xy 175.96 60.456486) (xy 175.96 60.193514)
        (xy 175.908696 59.935595) (xy 175.808061 59.692641) (xy 175.661962 59.473987) (xy 175.56695 59.378975) (xy 175.573555 59.373555)
        (xy 175.740382 59.170275) (xy 175.864347 58.938354) (xy 175.940683 58.686706) (xy 175.966459 58.425) (xy 175.940683 58.163294)
        (xy 175.864347 57.911646) (xy 175.740382 57.679725) (xy 175.573555 57.476445) (xy 175.370275 57.309618) (xy 175.138354 57.185653)
        (xy 174.886706 57.109317) (xy 174.690579 57.09) (xy 174.559421 57.09) (xy 174.363294 57.109317) (xy 174.111646 57.185653)
        (xy 173.879725 57.309618) (xy 173.676445 57.476445) (xy 173.509618 57.679725) (xy 173.385653 57.911646) (xy 173.309317 58.163294)
        (xy 173.283541 58.425) (xy 169.344542 58.425) (xy 169.299405 58.406304) (xy 169.041486 58.355) (xy 168.778514 58.355)
        (xy 168.520595 58.406304) (xy 168.277641 58.506939) (xy 168.058987 58.653038) (xy 167.963975 58.74805) (xy 167.958555 58.741445)
        (xy 167.755275 58.574618) (xy 167.523354 58.450653) (xy 167.271706 58.374317) (xy 167.075579 58.355) (xy 166.944421 58.355)
        (xy 166.748294 58.374317) (xy 166.496646 58.450653) (xy 166.264725 58.574618) (xy 166.061445 58.741445) (xy 165.894618 58.944725)
        (xy 165.770653 59.176646) (xy 165.694317 59.428294) (xy 165.668541 59.69) (xy 82.677 59.69) (xy 82.677 55.054419)
        (xy 86.61 55.054419) (xy 86.61 55.435581) (xy 86.684361 55.809419) (xy 86.830225 56.161566) (xy 87.041987 56.478491)
        (xy 87.311509 56.748013) (xy 87.628434 56.959775) (xy 87.980581 57.105639) (xy 88.354419 57.18) (xy 88.735581 57.18)
        (xy 89.109419 57.105639) (xy 89.461566 56.959775) (xy 89.778491 56.748013) (xy 90.048013 56.478491) (xy 90.259775 56.161566)
        (xy 90.405639 55.809419) (xy 90.48 55.435581) (xy 90.48 55.054419) (xy 90.468246 54.995324) (xy 97.91 54.995324)
        (xy 97.91 55.494676) (xy 98.007418 55.984432) (xy 98.198512 56.445773) (xy 98.475937 56.860968) (xy 98.829032 57.214063)
        (xy 99.244227 57.491488) (xy 99.705568 57.682582) (xy 100.195324 57.78) (xy 100.694676 57.78) (xy 101.184432 57.682582)
        (xy 101.645773 57.491488) (xy 102.060968 57.214063) (xy 102.414063 56.860968) (xy 102.691488 56.445773) (xy 102.882582 55.984432)
        (xy 102.98 55.494676) (xy 102.98 54.995324) (xy 129.71 54.995324) (xy 129.71 55.494676) (xy 129.807418 55.984432)
        (xy 129.998512 56.445773) (xy 130.275937 56.860968) (xy 130.629032 57.214063) (xy 131.044227 57.491488) (xy 131.505568 57.682582)
        (xy 131.995324 57.78) (xy 132.494676 57.78) (xy 132.984432 57.682582) (xy 133.445773 57.491488) (xy 133.860968 57.214063)
        (xy 134.214063 56.860968) (xy 134.491488 56.445773) (xy 134.682582 55.984432) (xy 134.78 55.494676) (xy 134.78 54.995324)
        (xy 134.682582 54.505568) (xy 134.491488 54.044227) (xy 134.425187 53.945) (xy 142.206928 53.945) (xy 142.206928 56.545)
        (xy 142.219188 56.669482) (xy 142.255498 56.78918) (xy 142.314463 56.899494) (xy 142.393815 56.996185) (xy 142.490506 57.075537)
        (xy 142.60082 57.134502) (xy 142.720518 57.170812) (xy 142.845 57.183072) (xy 145.445 57.183072) (xy 145.569482 57.170812)
        (xy 145.68918 57.134502) (xy 145.799494 57.075537) (xy 145.896185 56.996185) (xy 145.975537 56.899494) (xy 146.034502 56.78918)
        (xy 146.070812 56.669482) (xy 146.083072 56.545) (xy 146.083072 54.4475) (xy 154.316928 54.4475) (xy 154.316928 54.7725)
        (xy 154.332311 54.928684) (xy 154.377868 55.078866) (xy 154.451849 55.217274) (xy 154.55141 55.33859) (xy 154.672726 55.438151)
        (xy 154.811134 55.512132) (xy 154.961316 55.557689) (xy 155.1175 55.573072) (xy 157.1425 55.573072) (xy 157.298684 55.557689)
        (xy 157.448866 55.512132) (xy 157.587274 55.438151) (xy 157.70859 55.33859) (xy 157.808151 55.217274) (xy 157.882132 55.078866)
        (xy 157.927689 54.928684) (xy 157.943072 54.7725) (xy 157.943072 54.4475) (xy 163.366928 54.4475) (xy 163.366928 54.7725)
        (xy 163.382311 54.928684) (xy 163.427868 55.078866) (xy 163.501849 55.217274) (xy 163.60141 55.33859) (xy 163.722726 55.438151)
        (xy 163.861134 55.512132) (xy 164.011316 55.557689) (xy 164.1675 55.573072) (xy 166.1925 55.573072) (xy 166.348684 55.557689)
        (xy 166.498866 55.512132) (xy 166.637274 55.438151) (xy 166.75859 55.33859) (xy 166.858151 55.217274) (xy 166.932132 55.078866)
        (xy 166.977689 54.928684) (xy 166.993072 54.7725) (xy 166.993072 54.4475) (xy 166.977689 54.291316) (xy 166.932132 54.141134)
        (xy 166.858151 54.002726) (xy 166.75859 53.88141) (xy 166.637274 53.781849) (xy 166.498866 53.707868) (xy 166.348684 53.662311)
        (xy 166.1925 53.646928) (xy 164.1675 53.646928) (xy 164.011316 53.662311) (xy 163.861134 53.707868) (xy 163.722726 53.781849)
        (xy 163.60141 53.88141) (xy 163.501849 54.002726) (xy 163.427868 54.141134) (xy 163.382311 54.291316) (xy 163.366928 54.4475)
        (xy 157.943072 54.4475) (xy 157.927689 54.291316) (xy 157.882132 54.141134) (xy 157.808151 54.002726) (xy 157.70859 53.88141)
        (xy 157.587274 53.781849) (xy 157.448866 53.707868) (xy 157.298684 53.662311) (xy 157.1425 53.646928) (xy 155.1175 53.646928)
        (xy 154.961316 53.662311) (xy 154.811134 53.707868) (xy 154.672726 53.781849) (xy 154.55141 53.88141) (xy 154.451849 54.002726)
        (xy 154.377868 54.141134) (xy 154.332311 54.291316) (xy 154.316928 54.4475) (xy 146.083072 54.4475) (xy 146.083072 53.945)
        (xy 146.070812 53.820518) (xy 146.034502 53.70082) (xy 145.975537 53.590506) (xy 145.896185 53.493815) (xy 145.799494 53.414463)
        (xy 145.68918 53.355498) (xy 145.569482 53.319188) (xy 145.445 53.306928) (xy 142.845 53.306928) (xy 142.720518 53.319188)
        (xy 142.60082 53.355498) (xy 142.490506 53.414463) (xy 142.393815 53.493815) (xy 142.314463 53.590506) (xy 142.255498 53.70082)
        (xy 142.219188 53.820518) (xy 142.206928 53.945) (xy 134.425187 53.945) (xy 134.214063 53.629032) (xy 133.860968 53.275937)
        (xy 133.445773 52.998512) (xy 132.984432 52.807418) (xy 132.494676 52.71) (xy 131.995324 52.71) (xy 131.505568 52.807418)
        (xy 131.044227 52.998512) (xy 130.629032 53.275937) (xy 130.275937 53.629032) (xy 129.998512 54.044227) (xy 129.807418 54.505568)
        (xy 129.71 54.995324) (xy 102.98 54.995324) (xy 102.882582 54.505568) (xy 102.691488 54.044227) (xy 102.414063 53.629032)
        (xy 102.060968 53.275937) (xy 101.645773 52.998512) (xy 101.184432 52.807418) (xy 100.694676 52.71) (xy 100.195324 52.71)
        (xy 99.705568 52.807418) (xy 99.244227 52.998512) (xy 98.829032 53.275937) (xy 98.475937 53.629032) (xy 98.198512 54.044227)
        (xy 98.007418 54.505568) (xy 97.91 54.995324) (xy 90.468246 54.995324) (xy 90.405639 54.680581) (xy 90.259775 54.328434)
        (xy 90.048013 54.011509) (xy 89.778491 53.741987) (xy 89.461566 53.530225) (xy 89.109419 53.384361) (xy 88.735581 53.31)
        (xy 88.354419 53.31) (xy 87.980581 53.384361) (xy 87.628434 53.530225) (xy 87.311509 53.741987) (xy 87.041987 54.011509)
        (xy 86.830225 54.328434) (xy 86.684361 54.680581) (xy 86.61 55.054419) (xy 82.677 55.054419) (xy 82.677 52.065)
        (xy 149.153541 52.065) (xy 149.179317 52.326706) (xy 149.255653 52.578354) (xy 149.379618 52.810275) (xy 149.546445 53.013555)
        (xy 149.749725 53.180382) (xy 149.981646 53.304347) (xy 150.233294 53.380683) (xy 150.429421 53.4) (xy 150.560579 53.4)
        (xy 150.756706 53.380683) (xy 151.008354 53.304347) (xy 151.240275 53.180382) (xy 151.443555 53.013555) (xy 151.610382 52.810275)
        (xy 151.734347 52.578354) (xy 151.810683 52.326706) (xy 151.836459 52.065) (xy 151.820947 51.9075) (xy 154.316928 51.9075)
        (xy 154.316928 52.2325) (xy 154.332311 52.388684) (xy 154.377868 52.538866) (xy 154.451849 52.677274) (xy 154.55141 52.79859)
        (xy 154.672726 52.898151) (xy 154.811134 52.972132) (xy 154.961316 53.017689) (xy 155.1175 53.033072) (xy 157.1425 53.033072)
        (xy 157.298684 53.017689) (xy 157.448866 52.972132) (xy 157.587274 52.898151) (xy 157.70859 52.79859) (xy 157.808151 52.677274)
        (xy 157.882132 52.538866) (xy 157.927689 52.388684) (xy 157.943072 52.2325) (xy 157.943072 51.9075) (xy 163.366928 51.9075)
        (xy 163.366928 52.2325) (xy 163.382311 52.388684) (xy 163.427868 52.538866) (xy 163.501849 52.677274) (xy 163.60141 52.79859)
        (xy 163.722726 52.898151) (xy 163.861134 52.972132) (xy 164.011316 53.017689) (xy 164.1675 53.033072) (xy 166.1925 53.033072)
        (xy 166.348684 53.017689) (xy 166.498866 52.972132) (xy 166.637274 52.898151) (xy 166.75859 52.79859) (xy 166.858151 52.677274)
        (xy 166.932132 52.538866) (xy 166.977689 52.388684) (xy 166.993072 52.2325) (xy 166.993072 51.9075) (xy 166.977689 51.751316)
        (xy 166.932132 51.601134) (xy 166.858151 51.462726) (xy 166.75859 51.34141) (xy 166.637274 51.241849) (xy 166.498866 51.167868)
        (xy 166.348684 51.122311) (xy 166.1925 51.106928) (xy 164.1675 51.106928) (xy 164.011316 51.122311) (xy 163.861134 51.167868)
        (xy 163.722726 51.241849) (xy 163.60141 51.34141) (xy 163.501849 51.462726) (xy 163.427868 51.601134) (xy 163.382311 51.751316)
        (xy 163.366928 51.9075) (xy 157.943072 51.9075) (xy 157.927689 51.751316) (xy 157.882132 51.601134) (xy 157.808151 51.462726)
        (xy 157.70859 51.34141) (xy 157.587274 51.241849) (xy 157.448866 51.167868) (xy 157.298684 51.122311) (xy 157.1425 51.106928)
        (xy 155.1175 51.106928) (xy 154.961316 51.122311) (xy 154.811134 51.167868) (xy 154.672726 51.241849) (xy 154.55141 51.34141)
        (xy 154.451849 51.462726) (xy 154.377868 51.601134) (xy 154.332311 51.751316) (xy 154.316928 51.9075) (xy 151.820947 51.9075)
        (xy 151.810683 51.803294) (xy 151.734347 51.551646) (xy 151.610382 51.319725) (xy 151.443555 51.116445) (xy 151.43695 51.111025)
        (xy 151.531962 51.016013) (xy 151.678061 50.797359) (xy 151.68318 50.785) (xy 170.161928 50.785) (xy 170.161928 52.085)
        (xy 170.174188 52.209482) (xy 170.210498 52.32918) (xy 170.269463 52.439494) (xy 170.348815 52.536185) (xy 170.445506 52.615537)
        (xy 170.55582 52.674502) (xy 170.675518 52.710812) (xy 170.8 52.723072) (xy 172.1 52.723072) (xy 172.224482 52.710812)
        (xy 172.34418 52.674502) (xy 172.454494 52.615537) (xy 172.551185 52.536185) (xy 172.630537 52.439494) (xy 172.689502 52.32918)
        (xy 172.725812 52.209482) (xy 172.738072 52.085) (xy 172.738072 51.727828) (xy 172.754381 51.809821) (xy 172.851247 52.043676)
        (xy 172.991875 52.25414) (xy 173.17086 52.433125) (xy 173.381324 52.573753) (xy 173.615179 52.670619) (xy 173.863439 52.72)
        (xy 174.116561 52.72) (xy 174.364821 52.670619) (xy 174.598676 52.573753) (xy 174.80914 52.433125) (xy 174.988125 52.25414)
        (xy 175.128753 52.043676) (xy 175.225619 51.809821) (xy 175.275 51.561561) (xy 175.275 51.308439) (xy 175.225619 51.060179)
        (xy 175.128753 50.826324) (xy 174.988125 50.61586) (xy 174.80914 50.436875) (xy 174.598676 50.296247) (xy 174.364821 50.199381)
        (xy 174.116561 50.15) (xy 174.005 50.15) (xy 174.005 50.038439) (xy 173.955619 49.790179) (xy 173.858753 49.556324)
        (xy 173.718125 49.34586) (xy 173.53914 49.166875) (xy 173.328676 49.026247) (xy 173.094821 48.929381) (xy 172.846561 48.88)
        (xy 172.593439 48.88) (xy 172.345179 48.929381) (xy 172.111324 49.026247) (xy 171.90086 49.166875) (xy 171.721875 49.34586)
        (xy 171.581247 49.556324) (xy 171.484381 49.790179) (xy 171.435 50.038439) (xy 171.435 50.146928) (xy 170.8 50.146928)
        (xy 170.675518 50.159188) (xy 170.55582 50.195498) (xy 170.445506 50.254463) (xy 170.348815 50.333815) (xy 170.269463 50.430506)
        (xy 170.210498 50.54082) (xy 170.174188 50.660518) (xy 170.161928 50.785) (xy 151.68318 50.785) (xy 151.778696 50.554405)
        (xy 151.83 50.296486) (xy 151.83 50.033514) (xy 151.778696 49.775595) (xy 151.678061 49.532641) (xy 151.567719 49.3675)
        (xy 154.316928 49.3675) (xy 154.316928 49.6925) (xy 154.332311 49.848684) (xy 154.377868 49.998866) (xy 154.451849 50.137274)
        (xy 154.55141 50.25859) (xy 154.672726 50.358151) (xy 154.811134 50.432132) (xy 154.961316 50.477689) (xy 155.1175 50.493072)
        (xy 157.1425 50.493072) (xy 157.298684 50.477689) (xy 157.448866 50.432132) (xy 157.587274 50.358151) (xy 157.70859 50.25859)
        (xy 157.808151 50.137274) (xy 157.882132 49.998866) (xy 157.927689 49.848684) (xy 157.943072 49.6925) (xy 157.943072 49.3675)
        (xy 163.366928 49.3675) (xy 163.366928 49.6925) (xy 163.382311 49.848684) (xy 163.427868 49.998866) (xy 163.501849 50.137274)
        (xy 163.60141 50.25859) (xy 163.722726 50.358151) (xy 163.861134 50.432132) (xy 164.011316 50.477689) (xy 164.1675 50.493072)
        (xy 166.1925 50.493072) (xy 166.348684 50.477689) (xy 166.498866 50.432132) (xy 166.637274 50.358151) (xy 166.75859 50.25859)
        (xy 166.858151 50.137274) (xy 166.932132 49.998866) (xy 166.977689 49.848684) (xy 166.993072 49.6925) (xy 166.993072 49.3675)
        (xy 166.977689 49.211316) (xy 166.932132 49.061134) (xy 166.858151 48.922726) (xy 166.75859 48.80141) (xy 166.637274 48.701849)
        (xy 166.498866 48.627868) (xy 166.348684 48.582311) (xy 166.1925 48.566928) (xy 164.1675 48.566928) (xy 164.011316 48.582311)
        (xy 163.861134 48.627868) (xy 163.722726 48.701849) (xy 163.60141 48.80141) (xy 163.501849 48.922726) (xy 163.427868 49.061134)
        (xy 163.382311 49.211316) (xy 163.366928 49.3675) (xy 157.943072 49.3675) (xy 157.927689 49.211316) (xy 157.882132 49.061134)
        (xy 157.808151 48.922726) (xy 157.70859 48.80141) (xy 157.587274 48.701849) (xy 157.448866 48.627868) (xy 157.298684 48.582311)
        (xy 157.1425 48.566928) (xy 155.1175 48.566928) (xy 154.961316 48.582311) (xy 154.811134 48.627868) (xy 154.672726 48.701849)
        (xy 154.55141 48.80141) (xy 154.451849 48.922726) (xy 154.377868 49.061134) (xy 154.332311 49.211316) (xy 154.316928 49.3675)
        (xy 151.567719 49.3675) (xy 151.531962 49.313987) (xy 151.346013 49.128038) (xy 151.127359 48.981939) (xy 150.884405 48.881304)
        (xy 150.626486 48.83) (xy 150.363514 48.83) (xy 150.105595 48.881304) (xy 149.862641 48.981939) (xy 149.643987 49.128038)
        (xy 149.458038 49.313987) (xy 149.311939 49.532641) (xy 149.211304 49.775595) (xy 149.16 50.033514) (xy 149.16 50.296486)
        (xy 149.211304 50.554405) (xy 149.311939 50.797359) (xy 149.458038 51.016013) (xy 149.55305 51.111025) (xy 149.546445 51.116445)
        (xy 149.379618 51.319725) (xy 149.255653 51.551646) (xy 149.179317 51.803294) (xy 149.153541 52.065) (xy 82.677 52.065)
        (xy 82.677 46.8275) (xy 154.316928 46.8275) (xy 154.316928 47.1525) (xy 154.332311 47.308684) (xy 154.377868 47.458866)
        (xy 154.451849 47.597274) (xy 154.55141 47.71859) (xy 154.672726 47.818151) (xy 154.811134 47.892132) (xy 154.961316 47.937689)
        (xy 155.1175 47.953072) (xy 157.1425 47.953072) (xy 157.298684 47.937689) (xy 157.448866 47.892132) (xy 157.587274 47.818151)
        (xy 157.70859 47.71859) (xy 157.808151 47.597274) (xy 157.882132 47.458866) (xy 157.927689 47.308684) (xy 157.943072 47.1525)
        (xy 157.943072 46.8275) (xy 163.366928 46.8275) (xy 163.366928 47.1525) (xy 163.382311 47.308684) (xy 163.427868 47.458866)
        (xy 163.501849 47.597274) (xy 163.60141 47.71859) (xy 163.722726 47.818151) (xy 163.861134 47.892132) (xy 164.011316 47.937689)
        (xy 164.1675 47.953072) (xy 166.1925 47.953072) (xy 166.348684 47.937689) (xy 166.498866 47.892132) (xy 166.637274 47.818151)
        (xy 166.75859 47.71859) (xy 166.858151 47.597274) (xy 166.932132 47.458866) (xy 166.977689 47.308684) (xy 166.993072 47.1525)
        (xy 166.993072 46.8275) (xy 166.977689 46.671316) (xy 166.932132 46.521134) (xy 166.858151 46.382726) (xy 166.75859 46.26141)
        (xy 166.637274 46.161849) (xy 166.498866 46.087868) (xy 166.348684 46.042311) (xy 166.1925 46.026928) (xy 164.1675 46.026928)
        (xy 164.011316 46.042311) (xy 163.861134 46.087868) (xy 163.722726 46.161849) (xy 163.60141 46.26141) (xy 163.501849 46.382726)
        (xy 163.427868 46.521134) (xy 163.382311 46.671316) (xy 163.366928 46.8275) (xy 157.943072 46.8275) (xy 157.927689 46.671316)
        (xy 157.882132 46.521134) (xy 157.808151 46.382726) (xy 157.70859 46.26141) (xy 157.587274 46.161849) (xy 157.448866 46.087868)
        (xy 157.298684 46.042311) (xy 157.1425 46.026928) (xy 155.1175 46.026928) (xy 154.961316 46.042311) (xy 154.811134 46.087868)
        (xy 154.672726 46.161849) (xy 154.55141 46.26141) (xy 154.451849 46.382726) (xy 154.377868 46.521134) (xy 154.332311 46.671316)
        (xy 154.316928 46.8275) (xy 82.677 46.8275) (xy 82.677 31.877) (xy 177.673 31.877)
      )
    )
  )
)
