EESchema Schematic File Version 4
LIBS:12V Voltage Regulator SC-cache
EELAYER 29 0
EELAYER END
$Descr A4 11693 8268
encoding utf-8
Sheet 1 1
Title ""
Date ""
Rev ""
Comp ""
Comment1 ""
Comment2 ""
Comment3 ""
Comment4 ""
$EndDescr
Text Notes 7950 6900 0    50   ~ 0
Student Numbers: MLLMIC055, RGRNIC007, PSLTHE001
Text Notes 8300 7500 0    50   ~ 0
PCB Design of 12V Voltage Regulator Subsystem
Text Notes 8300 7650 0    50   ~ 0
06/03/2021
$Comp
L Device:R_Small_US R7
U 1 1 60B944D4
P 5800 3300
F 0 "R7" V 5595 3300 50  0000 C CNN
F 1 "500" V 5686 3300 50  0000 C CNN
F 2 "Resistor_THT:R_Axial_DIN0204_L3.6mm_D1.6mm_P1.90mm_Vertical" H 5800 3300 50  0001 C CNN
F 3 "~" H 5800 3300 50  0001 C CNN
	1    5800 3300
	0    1    1    0   
$EndComp
$Comp
L Device:D_Zener Dz1
U 1 1 60B96025
P 4650 3800
F 0 "Dz1" V 4600 3600 50  0000 L CNN
F 1 "10" V 4700 3650 50  0000 L CNN
F 2 "Diode_THT:D_5KPW_P7.62mm_Vertical_AnodeUp" H 4650 3800 50  0001 C CNN
F 3 "~" H 4650 3800 50  0001 C CNN
	1    4650 3800
	0    1    1    0   
$EndComp
$Comp
L Amplifier_Operational:LM741 U1
U 1 1 60B96C9C
P 5200 3300
F 0 "U1" H 5250 3550 50  0000 L CNN
F 1 "LM741" H 5250 3450 50  0000 L CNN
F 2 "Package_SO:SOP-8_6.62x9.15mm_P2.54mm" H 5250 3350 50  0001 C CNN
F 3 "http://www.ti.com/lit/ds/symlink/lm741.pdf" H 5350 3450 50  0001 C CNN
	1    5200 3300
	1    0    0    -1  
$EndComp
Wire Wire Line
	4650 3650 4650 3200
Wire Wire Line
	4650 3200 4900 3200
Wire Wire Line
	4650 2850 4650 3200
Connection ~ 4650 3200
$Comp
L Device:Q_NPN_Darlington_BCE Q1
U 1 1 60B9D42C
P 6100 2450
F 0 "Q1" V 6428 2450 50  0000 C CNN
F 1 "Q_NPN_Darlington_BCE" V 6337 2450 50  0000 C CNN
F 2 "Package_TO_SOT_THT:TO-92" H 6300 2550 50  0001 C CNN
F 3 "~" H 6100 2450 50  0001 C CNN
	1    6100 2450
	0    -1   -1   0   
$EndComp
$Comp
L Device:R_Small_US R5
U 1 1 60B9F354
P 6650 2600
F 0 "R5" H 6500 2650 50  0000 L CNN
F 1 "1220" H 6400 2550 50  0000 L CNN
F 2 "Resistor_THT:R_Axial_DIN0204_L3.6mm_D1.6mm_P1.90mm_Vertical" H 6650 2600 50  0001 C CNN
F 3 "~" H 6650 2600 50  0001 C CNN
	1    6650 2600
	1    0    0    -1  
$EndComp
$Comp
L Device:R_Small_US R6
U 1 1 60B9F94D
P 6650 3000
F 0 "R6" H 6500 3050 50  0000 L CNN
F 1 "10k" H 6450 2950 50  0000 L CNN
F 2 "Resistor_THT:R_Axial_DIN0204_L3.6mm_D1.6mm_P1.90mm_Vertical" H 6650 3000 50  0001 C CNN
F 3 "~" H 6650 3000 50  0001 C CNN
	1    6650 3000
	1    0    0    -1  
$EndComp
$Comp
L power:GND #PWR0101
U 1 1 60BA0331
P 6650 3250
F 0 "#PWR0101" H 6650 3000 50  0001 C CNN
F 1 "GND" H 6655 3077 50  0000 C CNN
F 2 "" H 6650 3250 50  0001 C CNN
F 3 "" H 6650 3250 50  0001 C CNN
	1    6650 3250
	1    0    0    -1  
$EndComp
Wire Wire Line
	6650 2350 6650 2500
Wire Wire Line
	6650 3100 6650 3250
Wire Wire Line
	4650 2650 4650 2350
$Comp
L power:GND #PWR0102
U 1 1 60BA1597
P 4650 4500
F 0 "#PWR0102" H 4650 4250 50  0001 C CNN
F 1 "GND" H 4655 4327 50  0000 C CNN
F 2 "" H 4650 4500 50  0001 C CNN
F 3 "" H 4650 4500 50  0001 C CNN
	1    4650 4500
	1    0    0    -1  
$EndComp
$Comp
L Device:R_Small_US R4
U 1 1 60BA2850
P 7050 2350
F 0 "R4" V 6845 2350 50  0000 C CNN
F 1 "1.35" V 6936 2350 50  0000 C CNN
F 2 "Resistor_THT:R_Axial_DIN0204_L3.6mm_D1.6mm_P1.90mm_Vertical" H 7050 2350 50  0001 C CNN
F 3 "~" H 7050 2350 50  0001 C CNN
	1    7050 2350
	0    1    1    0   
$EndComp
$Comp
L Device:Q_NPN_BCE Q2
U 1 1 60BA3216
P 7000 3500
F 0 "Q2" V 7235 3500 50  0000 C CNN
F 1 "Q_NPN_BCE" V 7326 3500 50  0000 C CNN
F 2 "Package_TO_SOT_THT:TO-39-3" H 7200 3600 50  0001 C CNN
F 3 "~" H 7000 3500 50  0001 C CNN
	1    7000 3500
	0    1    1    0   
$EndComp
$Comp
L Device:R_Small_US R2
U 1 1 60BA717D
P 7600 3750
F 0 "R2" H 7668 3796 50  0000 L CNN
F 1 "1k" H 7668 3705 50  0000 L CNN
F 2 "Resistor_THT:R_Axial_DIN0204_L3.6mm_D1.6mm_P1.90mm_Vertical" H 7600 3750 50  0001 C CNN
F 3 "~" H 7600 3750 50  0001 C CNN
	1    7600 3750
	1    0    0    -1  
$EndComp
$Comp
L Device:R_Small_US R3
U 1 1 60BA7898
P 7600 4300
F 0 "R3" H 7668 4346 50  0000 L CNN
F 1 "5k" H 7668 4255 50  0000 L CNN
F 2 "Resistor_THT:R_Axial_DIN0204_L3.6mm_D1.6mm_P1.90mm_Vertical" H 7600 4300 50  0001 C CNN
F 3 "~" H 7600 4300 50  0001 C CNN
	1    7600 4300
	1    0    0    -1  
$EndComp
$Comp
L power:GND #PWR0103
U 1 1 60BA7E81
P 7600 4500
F 0 "#PWR0103" H 7600 4250 50  0001 C CNN
F 1 "GND" H 7605 4327 50  0000 C CNN
F 2 "" H 7600 4500 50  0001 C CNN
F 3 "" H 7600 4500 50  0001 C CNN
	1    7600 4500
	1    0    0    -1  
$EndComp
Wire Wire Line
	4650 3950 4650 4500
$Comp
L Device:R_Small_US Rload1
U 1 1 60BAAD95
P 7950 2650
F 0 "Rload1" H 8018 2696 50  0000 L CNN
F 1 "18.5" H 8018 2605 50  0000 L CNN
F 2 "Resistor_THT:R_Axial_DIN0204_L3.6mm_D1.6mm_P1.90mm_Vertical" H 7950 2650 50  0001 C CNN
F 3 "~" H 7950 2650 50  0001 C CNN
	1    7950 2650
	1    0    0    -1  
$EndComp
Wire Wire Line
	7950 2350 7950 2550
Wire Wire Line
	7950 2750 7950 3050
$Comp
L power:GND #PWR0104
U 1 1 60BABFA1
P 7950 3050
F 0 "#PWR0104" H 7950 2800 50  0001 C CNN
F 1 "GND" H 7955 2877 50  0000 C CNN
F 2 "" H 7950 3050 50  0001 C CNN
F 3 "" H 7950 3050 50  0001 C CNN
	1    7950 3050
	1    0    0    -1  
$EndComp
$Comp
L Device:R_Small_US R1
U 1 1 60B941D5
P 4650 2750
F 0 "R1" H 4500 2800 50  0000 L CNN
F 1 "3k" H 4500 2700 50  0000 L CNN
F 2 "Resistor_THT:R_Axial_DIN0204_L3.6mm_D1.6mm_P1.90mm_Vertical" H 4650 2750 50  0001 C CNN
F 3 "~" H 4650 2750 50  0001 C CNN
	1    4650 2750
	1    0    0    -1  
$EndComp
$Comp
L Device:Battery Vin1
U 1 1 60BAE832
P 4100 2750
F 0 "Vin1" H 3850 2800 50  0000 L CNN
F 1 "16" H 3950 2700 50  0000 L CNN
F 2 "Battery:BatteryHolder_Bulgin_BX0036_1xC" V 4100 2810 50  0001 C CNN
F 3 "~" V 4100 2810 50  0001 C CNN
	1    4100 2750
	1    0    0    -1  
$EndComp
$Comp
L power:GND #PWR0105
U 1 1 60BAFB05
P 4100 3200
F 0 "#PWR0105" H 4100 2950 50  0001 C CNN
F 1 "GND" H 4105 3027 50  0000 C CNN
F 2 "" H 4100 3200 50  0001 C CNN
F 3 "" H 4100 3200 50  0001 C CNN
	1    4100 3200
	1    0    0    -1  
$EndComp
Wire Wire Line
	4100 2550 4100 2350
Wire Wire Line
	4900 3400 4850 3400
Wire Wire Line
	4850 3400 4850 4000
Text Label 7950 2350 0    50   ~ 0
Vout
Wire Wire Line
	7000 2800 7000 3300
Wire Wire Line
	7600 4400 7600 4500
Wire Wire Line
	7600 3650 7600 2350
Connection ~ 7600 2350
Wire Wire Line
	7600 2350 7950 2350
Wire Wire Line
	7600 3850 7600 4000
Wire Wire Line
	6100 2650 6100 3300
Wire Wire Line
	5500 3300 5700 3300
Wire Wire Line
	5900 3300 6100 3300
Wire Wire Line
	4650 2350 5900 2350
Wire Wire Line
	4850 4000 7600 4000
Connection ~ 7600 4000
Wire Wire Line
	7600 4000 7600 4200
Wire Wire Line
	4100 2350 4650 2350
Connection ~ 4650 2350
$Comp
L power:GND #PWR0106
U 1 1 60BCE74C
P 5300 3600
F 0 "#PWR0106" H 5300 3350 50  0001 C CNN
F 1 "GND" H 5300 3450 50  0000 C CNN
F 2 "" H 5300 3600 50  0001 C CNN
F 3 "" H 5300 3600 50  0001 C CNN
	1    5300 3600
	1    0    0    -1  
$EndComp
$Comp
L power:GND #PWR0107
U 1 1 60BCF7A9
P 5200 3750
F 0 "#PWR0107" H 5200 3500 50  0001 C CNN
F 1 "GND" H 5205 3577 50  0000 C CNN
F 2 "" H 5200 3750 50  0001 C CNN
F 3 "" H 5200 3750 50  0001 C CNN
	1    5200 3750
	1    0    0    -1  
$EndComp
$Comp
L Device:Battery V-1
U 1 1 60BD0BD1
P 3400 2750
F 0 "V-1" H 3250 2800 50  0000 R CNN
F 1 "16" H 3250 2700 50  0000 R CNN
F 2 "Battery:BatteryHolder_Bulgin_BX0036_1xC" V 3400 2810 50  0001 C CNN
F 3 "~" V 3400 2810 50  0001 C CNN
	1    3400 2750
	1    0    0    -1  
$EndComp
$Comp
L power:GND #PWR0108
U 1 1 60BD4EBE
P 3700 2600
F 0 "#PWR0108" H 3700 2350 50  0001 C CNN
F 1 "GND" H 3705 2427 50  0000 C CNN
F 2 "" H 3700 2600 50  0001 C CNN
F 3 "" H 3700 2600 50  0001 C CNN
	1    3700 2600
	1    0    0    -1  
$EndComp
Text Label 4650 3200 0    50   ~ 0
VB
Text Label 4650 2350 0    50   ~ 0
VA
Wire Wire Line
	6300 2350 6650 2350
Wire Wire Line
	6100 3300 6100 3600
Wire Wire Line
	6100 3600 6800 3600
Connection ~ 6100 3300
Wire Wire Line
	6650 2700 6650 2800
Connection ~ 6650 2350
Wire Wire Line
	6650 2350 6950 2350
Wire Wire Line
	6650 2800 7000 2800
Connection ~ 6650 2800
Wire Wire Line
	6650 2800 6650 2900
Wire Wire Line
	7150 2350 7350 2350
Wire Wire Line
	7350 2350 7350 3600
Wire Wire Line
	7200 3600 7350 3600
Connection ~ 7350 2350
Wire Wire Line
	7350 2350 7600 2350
Text Label 7350 2350 0    50   ~ 0
VF
Text Label 6650 2800 0    50   ~ 0
VH
Text Label 6650 2350 0    50   ~ 0
VE
Text Label 6100 3300 0    50   ~ 0
VD
Text Label 5550 3300 0    50   ~ 0
VC
Text Label 7600 4000 0    50   ~ 0
VG
Wire Wire Line
	4100 2950 4100 3200
Wire Wire Line
	3400 2950 3400 3150
Wire Wire Line
	3400 2350 3700 2350
Wire Wire Line
	3700 2350 3700 2600
Wire Wire Line
	3400 2350 3400 2550
Text Label 5100 2800 0    50   ~ 0
V+
Text Label 5100 3750 0    50   ~ 0
V-
Wire Wire Line
	5200 3600 5200 3750
Wire Wire Line
	5100 3600 5100 3750
Wire Wire Line
	5100 2800 5100 3000
Text Label 4100 2350 0    50   ~ 0
V+
Text Label 3400 3150 0    50   ~ 0
V-
$EndSCHEMATC
